<svg width="132" height="125" viewBox="0 0 132 125" fill="none" xmlns="http://www.w3.org/2000/svg">
<path d="M52.2492 17.8448C52.0565 18.4866 51.928 19.0642 51.7995 19.706C52.442 19.5134 53.0202 19.3851 53.6627 19.2567C53.8555 18.6149 53.984 18.0373 54.1767 17.4597C53.5342 17.5881 52.8917 17.7164 52.2492 17.8448ZM68.1831 10.2075L66.5768 8.60299C65.9986 8.73135 65.4846 8.79553 64.9064 8.92389L67.4763 11.491C67.0908 12.1328 66.6411 12.7105 66.1271 13.2239L62.5291 9.62985C62.0151 9.82239 61.5654 9.95075 61.0514 10.1433L65.0348 14.1224C64.7136 14.3149 64.4566 14.5716 64.1354 14.7C63.8141 14.8925 63.4286 15.0209 63.1074 15.2134L59.0597 11.1702C58.7384 11.4269 58.4172 11.6836 58.0959 12.0045C58.0959 12.0045 58.0317 12.0687 58.0317 12.1328L61.6939 15.791C60.9229 16.0478 60.1519 16.3045 59.3167 16.497L56.6824 13.8657C56.4254 14.2507 56.1684 14.7 55.9757 15.1493L57.6462 16.8179C56.8109 17.0104 55.9114 17.1388 55.0762 17.2672C54.8834 17.8448 54.6907 18.4224 54.498 19.0642C58.3529 18.294 62.3364 17.909 65.5488 16.1119C68.4401 14.5075 70.0463 11.3627 71.0743 7.76866C70.4318 7.89702 69.725 8.02537 69.0826 8.15373C68.8256 8.8597 68.5043 9.56568 68.1831 10.2075ZM47.2378 19.4493L48.6513 20.8612C48.844 20.7328 49.101 20.6687 49.2938 20.6045L50.5787 21.8881C50.7072 21.3104 50.7715 20.797 50.9 20.2194L50.7073 20.0269C50.7715 20.0269 50.8357 19.9627 50.9 19.9627C51.0285 19.3209 51.2212 18.6791 51.3497 18.0373C50.0005 18.3582 48.587 18.8075 47.2378 19.4493ZM69.3395 7.38359C69.982 7.25523 70.6245 7.12687 71.3313 6.99851C71.524 6.35672 71.6525 5.77911 71.781 5.13732C71.1385 5.32985 70.5603 5.45821 69.9178 5.58657C69.725 6.16418 69.5323 6.80597 69.3395 7.38359ZM70.1105 4.75224C70.753 4.62388 71.3313 4.43134 71.9738 4.30299C71.9738 4.23881 71.9738 4.17463 72.038 4.17463L72.1665 4.30299C72.6805 4.17463 73.1945 3.98209 73.6443 3.78955L72.3593 2.50597C72.4235 2.18508 72.4878 1.92836 72.552 1.60747L71.1385 0.195526C70.8173 1.67165 70.496 3.27612 70.1105 4.75224Z" fill="white"/>
<path d="M56.1684 10.0791C53.2129 13.0313 52.0565 18.1657 51.0927 23.2358C51.5425 23.6851 52.0564 24.1985 52.5062 24.6478C53.4699 19.5776 54.5622 14.4433 57.5819 11.491C58.1601 10.9134 58.8026 10.4642 59.5094 10.0791C64.4566 7.3194 71.2028 7.89701 76.407 5.39403C75.9572 4.94477 75.4432 4.43134 74.9935 3.98209C69.7893 6.48507 63.0431 5.90746 58.0959 8.66716C57.3249 9.05224 56.6824 9.56567 56.1684 10.0791Z" fill="white"/>
<path d="M96.3885 52.7582C92.4693 52.7582 89.3211 55.8388 89.0641 59.6253H103.713C103.456 55.8388 100.308 52.7582 96.3885 52.7582Z" fill="white"/>
<path d="M89.0641 60.4597C89.2568 64.3104 92.4693 67.391 96.3885 67.391C100.308 67.391 103.52 64.3104 103.713 60.4597H89.0641Z" fill="white"/>
<path d="M82.8319 47.4313C80.2619 47.4313 78.1417 49.5492 78.1417 52.1164V66.3642C78.1417 67.6477 78.6556 68.803 79.5551 69.7015C80.3904 70.5358 81.6111 71.1134 82.8961 71.1134C85.4661 71.1134 87.5864 68.9955 87.5864 66.4283V52.1806C87.5221 49.5492 85.4019 47.4313 82.8319 47.4313ZM86.5584 59.497H79.1696V52.3089C79.1696 50.2552 80.8401 48.5866 82.8961 48.5866C84.9521 48.5866 86.6226 50.2552 86.6226 52.3089V59.497H86.5584Z" fill="white"/>
<path d="M8.43122 91.9074C8.43122 91.9074 0.335815 105.385 0.335815 109.878C0.335815 114.306 3.93377 117.964 8.43122 117.964C12.8644 117.964 16.5266 114.37 16.5266 109.878C16.5266 105.385 8.43122 91.9074 8.43122 91.9074ZM8.43122 116.167C4.89751 116.167 2.07053 113.343 2.07053 109.813C2.07053 107.375 5.54 100.379 8.43122 95.2448C11.3224 100.379 14.7919 107.375 14.7919 109.813C14.8561 113.343 11.9649 116.167 8.43122 116.167Z" fill="white"/>
<path d="M7.59595 113.664C5.98972 112.83 5.02598 111.161 5.02598 109.364C5.02598 109.043 4.76899 108.722 4.38349 108.722C4.06224 108.722 3.741 108.979 3.741 109.364C3.741 111.61 4.96173 113.664 6.95346 114.755C7.01771 114.819 7.14621 114.819 7.27471 114.819C7.46745 114.819 7.72446 114.691 7.78871 114.499C8.04571 114.178 7.9172 113.857 7.59595 113.664Z" fill="white"/>
<path d="M47.9445 49.2284C47.9445 49.2284 47.045 50.1269 44.218 50.1269C43.5756 50.1269 42.8688 50.0627 42.0978 49.9985C37.4076 49.4209 35.4159 47.303 35.4159 47.303C35.4159 47.303 33.4241 49.3567 28.7339 49.9985C27.8987 50.1269 27.1919 50.1269 26.6137 50.1269C23.851 50.1269 22.8872 49.2284 22.8872 49.2284C22.8872 49.2284 20.1888 65.2731 35.4159 74.1298C50.643 65.3373 47.9445 49.2284 47.9445 49.2284ZM35.4159 72.4612C29.8904 69.0597 26.3567 64.2463 24.879 58.1492C24.1722 55.3895 24.108 52.9507 24.1722 51.3463C24.8147 51.4746 25.5857 51.603 26.5494 51.603C27.2562 51.603 28.0914 51.5388 28.8624 51.4746C32.0749 51.0896 34.1951 49.9985 35.3516 49.2284C36.5081 49.9985 38.6284 51.0896 41.8408 51.4746C42.6761 51.603 43.447 51.603 44.1538 51.603C45.1175 51.603 45.8885 51.5388 46.531 51.3463C46.788 55.5179 45.9528 65.9149 35.4159 72.4612Z" fill="white"/>
<path d="M37.1506 54.8119H33.6811V58.2776H30.2117V61.7433H33.6811V65.2731H37.1506V61.7433H40.62V58.2776H37.1506V54.8119Z" fill="white"/>
<path d="M76.9852 103.909C76.7925 99.7373 73.323 96.5925 69.0183 96.5925C68.8898 96.5925 68.7613 96.5925 68.6328 96.5925C65.9343 96.7209 63.8784 98.4537 62.8504 99.5447C61.8224 98.4537 59.8307 96.6567 57.1322 96.4641C56.9394 96.4641 56.811 96.4641 56.6182 96.4641C52.3778 96.4641 48.9083 99.5447 48.6513 103.652C48.3943 107.503 51.0285 110.84 53.0202 113.022C55.5902 115.846 59.6379 118.927 62.2721 120.467L62.7219 120.724L63.1716 120.467C65.8058 118.927 69.9178 115.975 72.552 113.151C74.5437 111.097 77.178 107.76 76.9852 103.909ZM71.2028 112.06C68.5686 114.819 64.8421 117.515 62.7219 118.798C60.6017 117.451 56.8752 114.755 54.3052 111.931C53.7912 111.354 53.2772 110.776 52.7632 110.07H58.2244C58.2887 110.07 58.4172 110.006 58.4814 109.942L58.8027 109.557L59.1882 111.29C59.1882 111.418 59.3167 111.482 59.4452 111.482C59.5737 111.482 59.7022 111.418 59.7022 111.29L60.0877 109.685L60.5374 111.995C60.5374 112.124 60.6659 112.188 60.7944 112.188C60.9229 112.188 61.0514 112.124 61.0514 111.995L62.4006 105.449L63.4929 115.14C63.4929 115.269 63.6214 115.333 63.7499 115.333C63.8784 115.333 64.0069 115.269 64.0069 115.14L64.9706 109.364L65.3561 111.867C65.3561 111.995 65.4846 112.06 65.6131 112.06C65.7416 112.06 65.8701 111.995 65.8701 111.867L66.5768 109.749L66.8338 110.969C66.8338 111.097 66.9623 111.161 67.0908 111.161C67.2193 111.161 67.3478 111.097 67.3478 110.969L67.6691 110.07L67.9903 110.519C68.0546 110.584 68.1188 110.648 68.1831 110.648C68.2473 110.648 68.3758 110.584 68.3758 110.584L68.8256 110.07H72.809C72.3593 110.776 71.781 111.482 71.2028 112.06ZM73.2588 109.557H68.8256C68.7613 109.557 68.6328 109.621 68.6328 109.621L68.3116 109.942L67.9261 109.364C67.8618 109.3 67.7976 109.236 67.6691 109.236C67.5406 109.236 67.4763 109.3 67.4121 109.428L67.2193 109.942L66.8981 108.594C66.8981 108.466 66.7696 108.401 66.6411 108.401C66.5126 108.401 66.3841 108.466 66.3841 108.594L65.7416 110.584L65.2919 107.567C65.2919 107.439 65.1633 107.375 65.0348 107.375C64.9063 107.375 64.7779 107.439 64.7779 107.567L63.8784 113.087L62.7861 103.588C62.7861 103.46 62.6576 103.395 62.5291 103.395C62.4006 103.395 62.2721 103.46 62.2721 103.588L60.8586 110.455L60.4089 108.145C60.4089 108.016 60.2804 107.952 60.1519 107.952C60.0234 107.952 59.8949 108.016 59.8949 108.145L59.5094 109.813L59.2524 108.722C59.2524 108.594 59.1239 108.53 58.9954 108.53C58.8669 108.53 58.8027 108.53 58.7384 108.658L58.1602 109.428H52.442C51.2855 107.76 50.3218 105.77 50.4503 103.652C50.643 100.893 52.8275 98.0686 56.6824 98.0686C56.8109 98.0686 56.9394 98.0686 57.1322 98.0686C60.1519 98.2612 62.2079 101.213 62.2079 101.278L62.9146 102.304L63.6214 101.278C63.6214 101.278 65.7416 98.3253 68.7613 98.197C72.809 98.0686 75.1862 101.021 75.3147 103.845C75.379 106.027 74.4153 107.952 73.2588 109.557Z" fill="white"/>
<path d="M131.276 108.337C131.276 106.604 129.862 105.257 128.192 105.257C126.521 105.257 125.108 106.669 125.108 108.337C125.108 109.813 126.136 111.033 127.549 111.354V116.552C127.549 120.339 124.465 123.419 120.675 123.419C116.884 123.419 113.8 120.339 113.8 116.552V114.434H116.82C118.49 114.434 119.904 113.151 120.096 111.546L121.831 97.5552C121.96 96.5925 121.638 95.6298 120.996 94.9239C120.353 94.2179 119.454 93.7686 118.49 93.7686H117.205C116.82 93.7686 116.499 94.0895 116.499 94.4746C116.499 94.8597 116.82 95.1806 117.205 95.1806H118.49C119.068 95.1806 119.582 95.4373 119.968 95.8224C120.353 96.2716 120.482 96.7851 120.418 97.3627L118.683 111.354C118.554 112.316 117.719 113.087 116.756 113.087H109.303C108.339 113.087 107.504 112.381 107.375 111.354L105.64 97.3627C105.576 96.7851 105.769 96.2716 106.09 95.8224C106.476 95.3731 106.99 95.1806 107.568 95.1806H109.367C109.752 95.1806 110.074 94.8597 110.074 94.4746C110.074 94.0895 109.752 93.7686 109.367 93.7686H107.568C106.604 93.7686 105.705 94.1537 105.062 94.9239C104.42 95.6298 104.163 96.5925 104.227 97.5552L105.962 111.546C106.154 113.215 107.568 114.434 109.238 114.434H112.258V116.552C112.258 121.109 115.985 124.767 120.482 124.767C125.044 124.767 128.706 121.045 128.706 116.552V111.354C130.248 111.033 131.276 109.813 131.276 108.337Z" fill="white"/>
</svg>
