<svg width="375" height="334" viewBox="0 0 375 334" fill="none" xmlns="http://www.w3.org/2000/svg">
<circle cx="25" cy="228" r="106" fill="white" fill-opacity="0.1"/>
<circle cx="368.5" cy="41.5" r="73.5" fill="white" fill-opacity="0.1"/>
<g style="mix-blend-mode:overlay">
<path d="M227.151 263.531L247.068 275.019V297.996L227.151 309.484L207.233 297.996V275.019L227.151 263.531ZM246.361 275.34L227.151 264.237L207.94 275.34V297.482L227.151 308.585L246.361 297.482V275.34Z" fill="#666666"/>
<path d="M188.023 263.531L207.94 275.019V297.996L188.023 309.484L168.105 297.996V275.019L188.023 263.531ZM207.233 275.34L188.023 264.301L168.812 275.404V297.546L188.023 308.649L207.233 297.546V275.34Z" fill="#666666"/>
<path d="M148.895 263.531L168.812 275.019V297.996L148.895 309.484L128.978 297.996V275.019L148.895 263.531ZM168.105 275.34L148.895 264.237L129.684 275.34V297.482L148.895 308.585L168.105 297.482V275.34Z" fill="#666666"/>
<path d="M324.938 229.645L344.855 241.133V264.109L324.938 275.597L305.021 264.109V241.133L324.938 229.645ZM344.149 241.518L324.938 230.415L305.727 241.518V263.724L324.938 274.827L344.149 263.724V241.518Z" fill="#666666"/>
<path d="M285.81 229.645L305.727 241.133V264.109L285.81 275.597L265.893 264.109V241.133L285.81 229.645ZM305.021 241.518L285.81 230.415L266.6 241.518V263.724L285.81 274.827L305.021 263.724V241.518Z" fill="#666666"/>
<path d="M246.682 229.645L266.6 241.133V264.109L246.682 275.597L226.765 264.109V241.133L246.682 229.645ZM265.893 241.518L246.682 230.415L227.472 241.518V263.724L246.682 274.827L265.893 263.724V241.518Z" fill="#666666"/>
<path d="M207.555 229.645L227.472 241.133V264.109L207.555 275.597L187.637 264.109V241.133L207.555 229.645ZM226.829 241.518L207.619 230.415L188.408 241.518V263.724L207.619 274.827L226.829 263.724V241.518Z" fill="#666666"/>
<path d="M168.491 229.645L188.408 241.133V264.109L168.491 275.597L148.574 264.109V241.133L168.491 229.645ZM187.702 241.518L168.491 230.415L149.28 241.518V263.724L168.491 274.827L187.702 263.724V241.518Z" fill="#666666"/>
<path d="M305.342 195.822L325.259 207.31V230.287L305.342 241.775L285.425 230.287V207.31L305.342 195.822ZM324.553 207.696L305.342 196.593L286.131 207.696V229.837L305.342 240.94L324.553 229.837V207.696Z" fill="#666666"/>
<path d="M266.278 195.822L286.196 207.31V230.287L266.278 241.775L246.361 230.287V207.31L266.278 195.822ZM285.489 207.696L266.278 196.593L247.068 207.696V229.837L266.278 240.94L285.489 229.837V207.696Z" fill="#666666"/>
<path d="M188.023 195.822L207.94 207.31V230.287L188.023 241.775L168.105 230.287V207.31L188.023 195.822ZM207.233 207.696L188.023 196.593L168.812 207.696V229.837L188.023 240.94L207.233 229.837V207.696Z" fill="#666666"/>
<path d="M285.81 162L305.727 173.488V196.464L285.81 207.952L265.893 196.464V173.488L285.81 162ZM305.021 173.873L285.81 162.77L266.6 173.873V196.015L285.81 207.118L305.021 196.015V173.873Z" fill="#666666"/>
</g>
<g style="mix-blend-mode:color-burn">
<path d="M323.075 317.57L296.411 332.973L269.748 317.57V286.764L281.313 280.09L296.411 271.361L323.075 286.764V317.57ZM255.87 278.228L242.506 270.527V239.721L255.87 232.019L269.234 224.318L295.897 239.721V270.527L282.534 278.228L269.17 285.93L255.87 278.228ZM324.039 317.057V286.187L296.861 270.527V239.207L269.684 223.548V192.228L242.057 176.312L214.429 192.228V223.548L187.252 239.207V270.527L160.074 286.187V317.185H-24V318.084H160.203L187.766 334L214.943 318.34L242.121 334L269.298 318.34L296.476 334L324.103 318.084V318.019H364.516V317.121H324.039V317.057ZM215.393 192.806L242.057 177.403L268.72 192.806V223.612L260.56 228.361L242.057 239.015L222.075 227.463L215.393 223.612V192.806ZM214.429 317.57L187.766 332.973L161.102 317.57V286.764L187.766 271.361L202.864 280.09L214.429 286.764V317.57ZM201.579 278.228L188.216 270.527V239.721L214.879 224.318L230.042 233.11L241.543 239.721V270.527L230.106 277.201L214.943 285.994L201.579 278.228ZM268.784 317.57L242.121 332.973L215.457 317.57V286.764L222.139 282.913L242.121 271.361L260.625 282.015L268.784 286.764V317.57Z" fill="white"/>
<path d="M323.203 317.378L296.54 332.781L269.876 317.378V286.572L281.441 279.897L296.54 271.169L323.203 286.572V317.378ZM256.063 278.1L242.699 270.399V239.593L256.063 231.891L269.427 224.19L296.09 239.593V270.399L282.726 278.1L269.362 285.801L256.063 278.1ZM324.167 316.928V286.058L296.99 270.399V239.079L269.812 223.419V192.1L242.185 176.184L214.558 192.1V223.419L187.38 239.079V270.399L160.203 286.058V317.057H-23.8715V317.955H160.396L187.959 333.872L215.136 318.212L242.313 333.872L269.491 318.212L296.668 333.872L324.296 317.955V317.891H364.708V316.993H324.167V316.928ZM215.521 192.678L242.185 177.275L268.848 192.678V223.484L260.689 228.233L242.185 238.887L222.203 227.334L215.521 223.484V192.678ZM214.622 317.378L187.959 332.781L161.295 317.378V286.572L187.959 271.169L203.057 279.897L214.622 286.572V317.378ZM201.708 278.1L188.344 270.399V239.593L215.008 224.19L230.17 232.982L241.671 239.593V270.399L230.17 277.009L215.008 285.801L201.708 278.1ZM268.913 317.378L242.249 332.781L215.586 317.378V286.572L222.268 282.721L242.249 271.169L260.753 281.822L268.913 286.572V317.378Z" fill="#FEFEFE"/>
<path d="M323.332 317.249L296.668 332.652L270.005 317.249V286.443L281.57 279.769L296.668 271.04L323.332 286.443V317.249ZM256.191 277.972L242.827 270.27V239.464L256.191 231.763L269.555 224.061L296.219 239.464V270.27L282.855 277.972L269.491 285.673L256.191 277.972ZM324.296 316.8V285.93L297.118 270.27V238.951L270.005 223.291V191.972L242.378 176.055L214.75 191.972V223.291L187.573 238.951V270.27L160.396 285.93V316.928H-23.743V317.827H160.46L188.023 333.743L215.2 318.084L242.378 333.743L269.555 318.084L296.733 333.743L324.36 317.827V317.763H364.708V316.864H324.296V316.8ZM215.65 192.549L242.313 177.146L268.977 192.549V223.355L260.817 228.104L242.378 238.694L222.396 227.142L215.714 223.291V192.549H215.65ZM214.75 317.249L188.087 332.652L161.424 317.249V286.443L188.087 271.04L203.186 279.769L214.75 286.443V317.249ZM201.836 277.972L188.472 270.27V239.464L215.136 224.061L230.299 232.854L241.799 239.464V270.27L230.427 276.881L215.264 285.673L201.836 277.972ZM269.041 317.249L242.378 332.652L215.714 317.249V286.443L222.396 282.593L242.378 271.04L260.881 281.694L269.041 286.443V317.249Z" fill="#FDFDFD"/>
<path d="M323.525 317.121L296.861 332.524L270.198 317.121V286.315L281.763 279.64L296.861 270.912L323.525 286.315V317.121ZM256.32 277.843L242.956 270.142V239.336L256.32 231.634L269.684 223.933L296.347 239.336V270.142L282.983 277.843L269.619 285.545L256.32 277.843ZM324.424 316.672V285.801L297.311 270.142V238.822L270.133 223.163V191.843L242.506 175.927L214.879 191.843V223.163L187.702 238.822V270.142L160.524 285.801V316.8H-23.5503V317.699H160.653L188.215 333.615L215.393 317.955L242.57 333.615L269.748 317.955L296.925 333.615L324.553 317.699V317.634H364.965V316.736H324.424V316.672ZM215.843 192.357L242.506 176.954L269.17 192.357V223.163L261.01 227.912L242.506 238.566L222.525 227.013L215.843 223.163V192.357ZM214.879 317.121L188.215 332.524L161.552 317.121V286.315L188.215 270.912L203.314 279.64L214.879 286.315V317.121ZM202.029 277.843L188.665 270.142V239.336L215.329 223.933L230.492 232.725L241.992 239.336V270.142L230.492 276.752L215.329 285.545L202.029 277.843ZM269.17 317.121L242.506 332.524L215.843 317.121V286.315L222.525 282.464L242.506 270.912L261.01 281.566L269.17 286.315V317.121Z" fill="#FCFCFC"/>
<path d="M323.653 316.993L296.99 332.396L270.262 316.993V286.187L281.827 279.512L296.925 270.784L323.589 286.187V316.993H323.653ZM256.448 277.715L243.084 270.013V239.207L256.448 231.506L269.812 223.804L296.476 239.207V270.013L283.112 277.715L269.748 285.416L256.448 277.715ZM324.553 316.543V285.673L297.375 270.013V238.694L270.262 223.034V191.715L242.635 175.799L215.008 191.715V223.034L187.894 238.694V270.013L160.717 285.673V316.672H-23.4218V317.57H160.781L188.344 333.487L215.521 317.827L242.699 333.487L269.876 317.827L297.054 333.487L324.681 317.57V317.506H365.094V316.607H324.553V316.543ZM215.971 192.228L242.635 176.825L269.298 192.228V223.034L261.139 227.784L242.635 238.437L222.653 226.885L215.971 223.034V192.228ZM215.008 316.993L188.344 332.396L161.681 316.993V286.187L188.344 270.784L203.443 279.512L215.008 286.187V316.993ZM202.158 277.715L188.794 270.013V239.207L215.457 223.804L230.62 232.597L242.121 239.207V270.013L230.62 276.624L215.457 285.416L202.158 277.715ZM269.298 316.993L242.635 332.396L215.971 316.993V286.187L222.653 282.336L242.635 270.784L261.139 281.437L269.298 286.187V316.993Z" fill="#FBFBFB"/>
<path d="M323.782 316.864L297.118 332.267L270.455 316.864V286.058L282.02 279.384L297.118 270.655L323.782 286.058V316.864ZM256.577 277.522L243.213 269.821V239.015L256.577 231.313L269.941 223.612L296.604 239.015V269.821L283.24 277.522L269.876 285.224L256.577 277.522ZM324.745 316.415V285.545L297.568 269.885V238.566L270.39 222.906V191.587L242.763 175.67L215.136 191.587V222.906L188.023 238.566V269.885L160.845 285.545V316.543H-23.2933V317.442H160.91L188.473 333.358L215.65 317.634L242.827 333.294L270.005 317.634L297.182 333.294L324.81 317.378V317.313H365.222V316.415H324.745ZM216.1 192.1L242.763 176.697L269.427 192.1V222.906L261.267 227.655L242.763 238.309L222.782 226.757L216.1 222.906V192.1ZM215.136 316.864L188.473 332.267L161.809 316.864V286.058L188.473 270.655L203.571 279.384L215.136 286.058V316.864ZM202.286 277.522L188.922 269.821V239.015L215.586 223.612L230.749 232.404L242.249 239.015V269.821L230.749 276.431L215.65 285.224L202.286 277.522ZM269.491 316.864L242.827 332.267L216.164 316.864V286.058L222.846 282.207L242.827 270.655L261.331 281.309L269.491 286.058V316.864Z" fill="#FAFAFA"/>
<path d="M323.91 316.672L297.247 332.075L270.583 316.672V285.866L282.148 279.191L297.247 270.463L323.91 285.866V316.672ZM256.77 277.394L243.406 269.693V238.887L256.77 231.185L270.133 223.484L296.797 238.887V269.693L283.433 277.394L270.069 285.096L256.77 277.394ZM324.874 316.222V285.352L297.696 269.693V238.373L270.519 222.713V191.394L242.892 175.478L215.265 191.394V222.713L188.087 238.373V269.693L160.91 285.352V316.351H-23.1647V317.249H161.038L188.601 333.166L215.779 317.506L242.956 333.166L270.133 317.506L297.311 333.166L324.938 317.249V317.185H365.351V316.287H324.874V316.222ZM216.228 191.972L242.892 176.569L269.555 191.972V222.778L261.396 227.527L242.892 238.181L222.91 226.628L216.228 222.778V191.972ZM215.329 316.672L188.665 332.075L162.002 316.672V285.866L188.665 270.463L203.764 279.191L215.329 285.866V316.672ZM202.415 277.394L189.051 269.693V238.887L215.714 223.484L230.877 232.276L242.378 238.887V269.693L230.877 276.303L215.714 285.096L202.415 277.394ZM269.619 316.672L242.956 332.075L216.293 316.672V285.866L222.974 282.015L242.956 270.463L261.46 281.116L269.619 285.866V316.672Z" fill="#F9F9F9"/>
<path d="M324.039 316.543L297.375 331.946L270.712 316.543V285.737L282.277 279.063L297.375 270.334L324.039 285.737V316.543ZM256.898 277.266L243.534 269.564V238.758L256.898 231.057L270.262 223.355L296.925 238.758V269.564L283.561 277.266L270.198 284.967L256.898 277.266ZM325.002 316.094V285.224L297.825 269.564V238.245L270.647 222.585V191.266L243.02 175.349L215.393 191.266V222.585L188.215 238.245V269.564L161.038 285.224V316.222H-23.0363V317.121H161.167L188.729 333.037L215.907 317.378L243.084 333.037L270.262 317.378L297.439 333.037L325.067 317.121V316.993H365.479V316.094H325.002ZM216.357 191.843L243.02 176.44L269.684 191.843V222.649L261.524 227.398L243.02 238.052L223.039 226.5L216.357 222.649V191.843ZM215.457 316.543L188.794 331.946L162.13 316.543V285.737L188.794 270.334L203.892 279.063L215.457 285.737V316.543ZM202.543 277.266L189.179 269.564V238.758L215.843 223.355L231.006 232.148L242.506 238.758V269.564L231.07 276.175L215.907 284.967L202.543 277.266ZM269.748 316.543L243.084 331.946L216.421 316.543V285.737L223.103 281.887L243.084 270.334L261.588 280.988L269.748 285.737V316.543Z" fill="#F8F8F8"/>
<path d="M324.167 316.415L297.504 331.818L270.84 316.415V285.609L282.405 278.934L297.504 270.206L324.167 285.609V316.415ZM257.027 277.137L243.663 269.436V238.63L257.027 230.928L270.39 223.227L297.054 238.63V269.436L283.69 277.137L270.326 284.839L257.027 277.137ZM325.131 315.966V285.095L297.953 269.436V238.116L270.776 222.457V191.137L243.149 175.221L215.521 191.137V222.457L188.344 238.116V269.436L161.167 285.095V316.094H-22.9078V316.992H161.295L188.858 332.909L216.035 317.249L243.213 332.909L270.39 317.249L297.568 332.909L325.195 316.992V316.928H365.608V316.03H325.131V315.966ZM216.549 191.651L243.213 176.248L269.876 191.651V222.457L261.717 227.206L243.213 237.86L223.231 226.307L216.549 222.457V191.651ZM215.586 316.415L188.922 331.818L162.259 316.415V285.609L188.922 270.206L204.021 278.934L215.586 285.609V316.415ZM202.736 277.137L189.372 269.436V238.63L216.035 223.227L231.198 232.019L242.699 238.63V269.436L231.198 276.046L216.035 284.839L202.736 277.137ZM269.876 316.415L243.213 331.818L216.549 316.415V285.609L223.231 281.758L243.213 270.206L261.717 280.86L269.876 285.609V316.415Z" fill="#F7F7F7"/>
<path d="M324.36 316.287L297.696 331.69L271.033 316.287V285.481L282.598 278.806L297.696 270.078L324.36 285.481V316.287ZM257.155 277.009L243.791 269.307V238.501L257.155 230.8L270.519 223.098L297.182 238.501V269.307L283.819 277.009L270.455 284.71L257.155 277.009ZM325.259 315.837V284.967L298.082 269.307V237.988L270.904 222.328V191.009L243.277 175.093L215.65 191.009V222.328L188.473 237.988V269.307L161.295 284.967V315.966H-22.715V316.864H161.488L189.051 332.781L216.228 317.121L243.406 332.781L270.583 317.121L297.761 332.781L325.388 316.864V316.8H365.801V315.901H325.259V315.837ZM216.678 191.522L243.341 176.119L270.005 191.522V222.328L261.845 227.078L243.341 237.731L223.36 226.179L216.678 222.328V191.522ZM215.714 316.287L189.051 331.69L162.387 316.287V285.481L189.051 270.078L204.149 278.806L215.714 285.481V316.287ZM202.864 277.009L189.501 269.307V238.501L216.164 223.098L231.327 231.891L242.827 238.501V269.307L231.391 275.918L216.228 284.71L202.864 277.009ZM270.005 316.287L243.341 331.69L216.678 316.287V285.481L223.36 281.63L243.341 270.078L261.845 280.731L270.005 285.481V316.287Z" fill="#F6F6F6"/>
<path d="M324.488 316.158L297.825 331.561L271.161 316.158V285.352L282.726 278.678L297.825 269.949L324.488 285.352V316.158ZM257.284 276.881L243.92 269.179V238.373L257.284 230.672L270.647 222.97L297.311 238.373V269.179L283.947 276.881L270.583 284.582L257.284 276.881ZM325.452 315.709V284.839L298.275 269.179V237.86L271.097 222.2V190.881L243.47 174.964L215.843 190.881V222.2L188.665 237.86V269.179L161.488 284.839V315.837H-22.5865V316.736H161.616L189.179 332.652L216.357 316.993L243.534 332.652L270.712 316.993L297.889 332.652L325.516 316.736V316.672H365.929V315.709H325.452ZM216.806 191.394L243.47 175.991L270.133 191.394V222.2L261.974 226.949L243.47 237.603L223.488 226.051L216.806 222.2V191.394ZM215.843 316.158L189.179 331.561L162.516 316.158V285.352L189.179 269.949L204.278 278.678L215.843 285.352V316.158ZM202.993 276.881L189.629 269.179V238.373L216.292 222.97L231.455 231.763L242.956 238.373V269.179L231.455 275.79L216.292 284.582L202.993 276.881ZM270.198 316.158L243.534 331.561L216.871 316.158V285.352L223.553 281.502L243.534 269.949L262.038 280.603L270.198 285.352V316.158Z" fill="#F5F5F5"/>
<path d="M324.617 316.03L297.953 331.433L271.29 316.03V285.224L282.855 278.549L297.953 269.821L324.617 285.224V316.03ZM257.412 276.688L244.048 268.987V238.181L257.412 230.479L270.776 222.778L297.439 238.181V268.987L284.076 276.688L270.712 284.39L257.412 276.688ZM325.581 315.516V284.646L298.403 268.987V237.667L271.226 222.007V190.688L243.598 174.772L215.971 190.688V222.007L188.794 237.667V268.987L161.681 284.71V315.709H-22.458V316.607H161.745L189.308 332.524L216.485 316.864L243.663 332.524L270.84 316.864L298.018 332.524L325.645 316.607V316.543H366.058V315.645H325.581V315.516ZM216.935 191.266L243.598 175.863L270.262 191.266V222.072L262.102 226.821L243.598 237.41L223.617 225.858L216.935 222.007V191.266ZM215.971 316.03L189.308 331.433L162.644 316.03V285.224L189.308 269.821L204.406 278.549L215.971 285.224V316.03ZM203.121 276.688L189.758 268.987V238.181L216.421 222.778L231.584 231.57L243.084 238.181V268.987L231.584 275.597L216.421 284.39L203.121 276.688ZM270.326 316.03L243.663 331.433L216.999 316.03V285.224L223.681 281.373L243.663 269.821L262.167 280.475L270.326 285.224V316.03Z" fill="#F4F4F4"/>
<path d="M324.745 315.837L298.082 331.24L271.418 315.837V285.031L282.983 278.357L298.082 269.628L324.745 285.031V315.837ZM257.605 276.56L244.241 268.858V238.052L257.605 230.351L270.969 222.649L297.632 238.052V268.858L284.268 276.56L270.904 284.261L257.605 276.56ZM325.709 315.388V284.518L298.532 268.858V237.539L271.354 221.879V190.56L243.727 174.643L216.1 190.56V221.879L188.922 237.539V268.858L161.745 284.518V315.516H-22.3295V316.415H161.873L189.436 332.331L216.614 316.672L243.791 332.331L270.969 316.672L298.146 332.331L325.773 316.415V316.351H366.186V315.452H325.709V315.388ZM217.063 191.137L243.727 175.734L270.39 191.137V221.943L262.231 226.693L243.727 237.346L223.745 225.794L217.063 221.943V191.137ZM216.164 315.837L189.501 331.24L162.837 315.837V285.031L189.501 269.628L204.599 278.357L216.164 285.031V315.837ZM203.25 276.56L189.95 268.858V238.052L216.614 222.649L231.777 231.442L243.277 238.052V268.858L231.777 275.469L216.614 284.261L203.25 276.56ZM270.455 315.837L243.791 331.24L217.128 315.837V285.031L223.81 281.181L243.791 269.628L262.295 280.282L270.455 285.031V315.837Z" fill="#F3F3F3"/>
<path d="M324.874 315.709L298.21 331.112L271.547 315.709V284.903L283.112 278.228L298.21 269.5L324.874 284.903V315.709ZM257.733 276.431L244.37 268.73V237.924L257.733 230.222L271.097 222.521L297.761 237.924V268.73L284.397 276.431L271.033 284.133L257.733 276.431ZM325.838 315.26V284.39L298.66 268.73V237.41L271.547 221.751V190.431L243.92 174.515L216.293 190.431V221.751L189.115 237.41V268.73L161.938 284.39V315.388H-22.201V316.287H162.002L189.565 332.203L216.742 316.543L243.92 332.203L271.097 316.543L298.275 332.203L325.902 316.287V316.222H366.315V315.324H325.838V315.26ZM217.256 191.009L243.92 175.606L270.583 191.009V221.815L262.424 226.564L243.92 237.154L223.938 225.602L217.256 221.751V191.009ZM216.293 315.709L189.629 331.112L162.966 315.709V284.903L189.629 269.5L204.728 278.228L216.293 284.903V315.709ZM203.443 276.431L190.079 268.73V237.924L216.742 222.521L231.905 231.313L243.406 237.924V268.73L231.905 275.34L216.742 284.133L203.443 276.431ZM270.583 315.709L243.92 331.112L217.256 315.709V284.903L223.938 281.052L243.92 269.5L262.424 280.154L270.583 284.903V315.709Z" fill="#F2F2F2"/>
<path d="M325.067 315.581L298.403 330.984L271.74 315.581V284.775L283.305 278.1L298.403 269.372L325.067 284.775V315.581ZM257.862 276.303L244.498 268.601V237.796L257.862 230.094L271.226 222.393L297.889 237.796V268.601L284.525 276.303L271.161 284.004L257.862 276.303ZM325.966 315.131V284.261L298.789 268.601V237.282L271.611 221.622V190.303L243.984 174.387L216.357 190.303V221.622L189.179 237.282V268.601L162.13 284.261V315.26H-22.0083V316.158H162.195L189.757 332.075L216.935 316.415L244.112 332.075L271.29 316.415L298.467 332.075L326.095 316.158V316.094H366.507V315.196H325.966V315.131ZM217.385 190.816L244.048 175.413L270.712 190.816V221.622L262.552 226.372L244.048 237.025L224.067 225.473L217.385 221.622V190.816ZM216.421 315.581L189.757 330.984L163.094 315.581V284.775L189.757 269.372L204.856 278.1L216.421 284.775V315.581ZM203.571 276.303L190.207 268.601V237.796L216.871 222.393L232.034 231.185L243.534 237.796V268.601L232.034 275.212L216.871 284.004L203.571 276.303ZM270.712 315.581L244.048 330.984L217.385 315.581V284.775L224.067 280.924L244.048 269.372L262.552 280.025L270.712 284.775V315.581Z" fill="#F1F1F1"/>
<path d="M325.195 315.452L298.532 330.855L271.868 315.452V284.646L283.433 277.972L298.532 269.243L325.195 284.646V315.452ZM257.99 276.175L244.626 268.473V237.667L257.99 229.966L271.354 222.264L298.018 237.667V268.473L284.654 276.175L271.29 283.876L257.99 276.175ZM326.095 315.003V284.133L298.917 268.473V237.154L271.74 221.494V190.175L244.112 174.258L216.485 190.175V221.494L189.308 237.154V268.473L162.13 284.133V315.131H-21.8798V316.03H162.323L189.886 331.946L217.064 316.287L244.241 331.946L271.418 316.287L298.596 331.946L326.223 316.03V315.966H366.636V315.067H326.095V315.003ZM217.513 190.688L244.177 175.285L270.84 190.688V221.494L262.681 226.243L244.177 236.897L224.195 225.345L217.513 221.494V190.688ZM216.55 315.452L189.886 330.855L163.223 315.452V284.646L189.886 269.243L204.985 277.972L216.55 284.646V315.452ZM203.7 276.175L190.336 268.473V237.667L216.999 222.264L232.162 231.057L243.663 237.667V268.473L232.162 275.084L216.999 283.876L203.7 276.175ZM270.84 315.452L244.177 330.855L217.513 315.452V284.646L224.195 280.796L244.177 269.243L262.681 279.897L270.84 284.646V315.452Z" fill="#F0F0F0"/>
<path d="M325.324 315.324L298.66 330.727L271.997 315.324V284.518L283.562 277.843L298.66 269.115L325.324 284.518V315.324ZM258.119 275.982L244.755 268.281V237.475L258.119 229.773L271.483 222.072L298.146 237.475V268.281L284.782 275.982L271.418 283.684L258.119 275.982ZM326.287 314.81V283.94L299.11 268.281V236.961L271.932 221.366V190.046L244.305 174.13L216.678 190.046V221.366L189.501 237.025V268.345L162.323 284.004V315.003H-21.7513V315.901H162.452L190.015 331.818L217.192 316.158L244.369 331.818L271.547 316.158L298.724 331.818L326.352 315.901V315.837H366.636V314.939H326.287V314.81ZM217.642 190.56L244.305 175.157L270.969 190.56V221.366L262.809 226.115L244.305 236.769L224.324 225.216L217.642 221.366V190.56ZM216.678 315.324L190.015 330.727L163.351 315.324V284.518L190.015 269.115L205.113 277.843L216.678 284.518V315.324ZM203.828 275.982L190.464 268.281V237.475L217.128 222.072L232.291 230.864L243.791 237.475V268.281L232.355 274.955L217.192 283.748L203.828 275.982ZM271.033 315.324L244.369 330.727L217.706 315.324V284.518L224.388 280.667L244.369 269.115L262.873 279.769L271.033 284.518V315.324Z" fill="#EFEFEF"/>
<path d="M325.452 315.131L298.789 330.534L272.125 315.131V284.325L283.69 277.651L298.789 268.922L325.452 284.325V315.131ZM258.312 275.854L244.948 268.152V237.346L258.312 229.645L271.675 221.943L298.339 237.346V268.152L284.975 275.854L271.611 283.555L258.312 275.854ZM326.416 314.682V283.812L299.238 268.152V236.833L272.061 221.173V189.854L244.434 173.937L216.806 189.854V221.173L189.629 236.833V268.152L162.452 283.812V314.81H-21.6228V315.709H162.58L190.143 331.625L217.32 315.966L244.498 331.625L271.675 315.966L298.853 331.625L326.48 315.709V315.645H366.893V314.746H326.416V314.682ZM217.77 190.431L244.434 175.028L271.097 190.431V221.237L262.938 225.987L244.434 236.64L224.452 225.088L217.77 221.237V190.431ZM216.871 315.131L190.207 330.534L163.544 315.131V284.325L190.207 268.922L205.306 277.651L216.871 284.325V315.131ZM203.957 275.854L190.593 268.152V237.346L217.256 221.943L232.419 230.736L243.92 237.346V268.152L232.419 274.763L217.256 283.555L203.957 275.854ZM271.161 315.131L244.498 330.534L217.834 315.131V284.325L224.516 280.475L244.498 268.922L263.002 279.576L271.161 284.325V315.131Z" fill="#EEEEEE"/>
<path d="M325.581 315.003L298.917 330.406L272.254 315.003V284.197L283.819 277.522L298.917 268.794L325.581 284.197V315.003ZM258.44 275.725L245.076 268.024V237.218L258.44 229.516L271.804 221.815L298.467 237.218V268.024L285.104 275.725L271.74 283.427L258.44 275.725ZM326.544 314.554V283.684L299.367 268.024V236.704L272.189 221.045V189.725L244.562 173.809L216.935 189.725V221.045L189.758 236.704V268.024L162.58 283.684V314.682H-21.4943V315.581H162.709L190.272 331.497L217.449 315.837L244.626 331.497L271.804 315.837L298.981 331.497L326.609 315.581V315.516H367.021V314.618H326.544V314.554ZM217.899 190.303L244.562 174.9L271.226 190.303V221.109L263.066 225.858L244.562 236.512L224.581 224.96L217.899 221.109V190.303ZM216.999 315.003L190.336 330.406L163.672 315.003V284.197L190.336 268.794L205.434 277.522L216.999 284.197V315.003ZM204.085 275.725L190.721 268.024V237.218L217.385 221.815L232.548 230.607L244.048 237.218V268.024L232.676 274.634L217.513 283.427L204.085 275.725ZM271.29 315.003L244.626 330.406L217.963 315.003V284.197L224.645 280.346L244.626 268.794L263.13 279.448L271.29 284.197V315.003Z" fill="#EDEDED"/>
<path d="M325.709 314.875L299.046 330.278L272.382 314.875V284.069L283.947 277.394L299.046 268.666L325.709 284.069V314.875ZM258.569 275.597L245.205 267.896V237.09L258.569 229.388L271.932 221.687L298.596 237.09V267.896L285.232 275.597L271.868 283.298L258.569 275.597ZM326.673 314.425V283.555L299.495 267.896V236.576L272.318 220.916V189.597L244.691 173.681L217.063 189.597V220.916L189.95 236.576V267.896L162.773 283.555V314.554H-21.3658V315.452H162.837L190.4 331.369L217.577 315.709L244.755 331.369L271.932 315.709L299.11 331.369L326.737 315.452V315.388H367.15V314.425H326.673ZM218.091 190.11L244.755 174.707L271.418 190.11V220.916L263.259 225.666L244.755 236.319L224.773 224.767L218.091 220.916V190.11ZM217.128 314.875L190.464 330.278L163.801 314.875V284.069L190.464 268.666L205.563 277.394L217.128 284.069V314.875ZM204.278 275.597L190.914 267.896V237.09L217.577 221.687L232.74 230.479L244.241 237.09V267.896L232.74 274.506L217.577 283.298L204.278 275.597ZM271.418 314.875L244.755 330.278L218.091 314.875V284.069L224.773 280.218L244.755 268.666L263.259 279.319L271.418 284.069V314.875Z" fill="#ECECEC"/>
<path d="M325.902 314.746L299.238 330.149L272.575 314.746V283.94L284.14 277.266L299.238 268.537L325.902 283.94V314.746ZM258.697 275.469L245.333 267.767V236.961L258.697 229.26L272.061 221.558L298.724 236.961V267.767L285.361 275.469L271.997 283.17L258.697 275.469ZM326.801 314.297V283.427L299.624 267.767V236.448L272.446 220.788V189.469L244.819 173.552L217.192 189.469V220.788L190.015 236.448V267.767L162.966 283.427V314.425H-21.173V315.324H163.03L190.593 331.24L217.77 315.581L244.948 331.24L272.125 315.581L299.303 331.24L326.93 315.324V315.26H367.343V314.361H326.801V314.297ZM218.22 189.982L244.883 174.579L271.547 189.982V220.788L263.387 225.537L244.883 236.191L224.902 224.639L218.22 220.788V189.982ZM217.256 314.746L190.593 330.149L163.929 314.746V283.94L190.593 268.537L205.691 277.266L217.256 283.94V314.746ZM204.406 275.469L191.042 267.767V236.961L217.706 221.558L232.869 230.351L244.369 236.961V267.767L232.869 274.378L217.706 283.17L204.406 275.469ZM271.547 314.746L244.883 330.149L218.22 314.746V283.94L224.902 280.09L244.883 268.537L263.387 279.191L271.547 283.94V314.746Z" fill="#EBEBEB"/>
<path d="M326.03 314.618L299.367 330.021L272.703 314.618V283.812L284.268 277.137L299.367 268.409L326.03 283.812V314.618ZM258.826 275.34L245.462 267.639V236.833L258.826 229.131L272.189 221.43L298.853 236.833V267.639L285.489 275.34L272.189 282.978L258.826 275.34ZM326.994 314.169V283.299L299.817 267.639V236.319L272.639 220.66V189.34L245.012 173.424L217.385 189.34V220.66L190.207 236.319V267.639L163.03 283.299V314.297H-21.0446V315.196H163.158L190.721 331.112L217.899 315.452L245.076 331.112L272.254 315.452L299.431 331.112L327.058 315.196V315.067H367.471V314.169H326.994ZM218.348 189.854L245.012 174.451L271.675 189.854V220.66L263.516 225.409L245.012 236.063L225.03 224.51L218.348 220.66V189.854ZM217.385 314.618L190.721 330.021L164.058 314.618V283.812L190.721 268.409L205.82 277.137L217.385 283.812V314.618ZM204.535 275.34L191.171 267.639V236.833L217.834 221.43L232.997 230.222L244.498 236.833V267.639L232.997 274.249L217.899 282.978L204.535 275.34ZM271.74 314.618L245.076 330.021L218.413 314.618V283.812L225.095 279.961L245.076 268.409L263.58 279.063L271.74 283.812V314.618Z" fill="#EAEAEA"/>
<path d="M326.159 314.49L299.495 329.893L272.832 314.49V283.684L284.397 277.009L299.495 268.281L326.159 283.684V314.49ZM258.954 275.148L245.59 267.446V236.64L258.954 228.939L272.318 221.237L298.981 236.64V267.446L285.618 275.148L272.254 282.849L258.954 275.148ZM327.123 313.976V283.106L299.945 267.446V236.127L272.768 220.467V189.148L245.14 173.231L217.513 189.148V220.467L190.4 236.127V267.446L163.223 283.106V314.104H-20.916V315.003H163.287L190.85 330.919L218.027 315.26L245.205 330.919L272.382 315.26L299.56 330.919L327.187 315.003V314.939H367.6V314.04H327.123V313.976ZM218.477 189.725L245.14 174.322L271.804 189.725V220.531L263.644 225.281L245.14 235.934L225.159 224.382L218.477 220.531V189.725ZM217.513 314.49L190.85 329.893L164.186 314.49V283.684L190.85 268.281L205.948 277.009L217.513 283.684V314.49ZM204.663 275.148L191.3 267.446V236.64L217.963 221.237L233.126 230.03L244.626 236.64V267.446L233.126 274.057L217.963 282.849L204.663 275.148ZM271.868 314.49L245.205 329.893L218.541 314.49V283.684L225.223 279.833L245.205 268.281L263.708 278.934L271.868 283.684V314.49Z" fill="#E9E9E9"/>
<path d="M326.287 314.297L299.624 329.7L272.96 314.297V283.491L284.525 276.816L299.624 268.088L326.287 283.491V314.297ZM259.147 275.019L245.783 267.318V236.512L259.147 228.81L272.511 221.109L299.174 236.512V267.318L285.81 275.019L272.446 282.721L259.147 275.019ZM327.251 313.848V282.978L300.074 267.318V235.999L272.896 220.339V189.019L245.269 173.103L217.642 189.019V220.339L190.464 235.999V267.318L163.351 282.978V313.976H-20.7875V314.875H163.415L190.978 330.791L218.156 315.131L245.333 330.791L272.511 315.131L299.688 330.791L327.315 314.875V314.81H367.728V313.912H327.251V313.848ZM218.605 189.597L245.269 174.194L271.932 189.597V220.403L263.773 225.152L245.269 235.806L225.287 224.254L218.605 220.403V189.597ZM217.706 314.297L191.043 329.7L164.379 314.297V283.491L191.043 268.088L206.141 276.816L217.706 283.491V314.297ZM204.792 275.019L191.428 267.318V236.512L218.091 221.109L233.254 229.901L244.755 236.512V267.318L233.319 273.993L218.156 282.785L204.792 275.019ZM271.997 314.297L245.333 329.7L218.67 314.297V283.491L225.352 279.64L245.333 268.088L263.837 278.742L271.997 283.491V314.297Z" fill="#E8E8E8"/>
<path d="M326.416 314.169L299.752 329.572L273.089 314.169V283.363L284.654 276.688L299.752 267.96L326.416 283.363V314.169ZM259.275 274.891L245.911 267.19V236.384L259.275 228.682L272.639 220.981L299.303 236.384V267.19L285.939 274.891L272.575 282.592L259.275 274.891ZM327.38 313.719V282.849L300.202 267.19V235.87L273.025 220.21V188.891L245.397 172.975L217.77 188.891V220.21L190.593 235.87V267.19L163.415 282.849V313.848H-20.6591V314.746H163.608L191.171 330.663L218.348 315.003L245.526 330.663L272.703 315.003L299.881 330.663L327.508 314.746V314.682H367.921V313.784H327.38V313.719ZM218.798 189.469L245.462 174.066L272.125 189.469V220.275L263.965 225.024L245.462 235.678L225.48 224.125L218.798 220.275V189.469ZM217.834 314.169L191.171 329.572L164.508 314.169V283.363L191.171 267.96L206.27 276.688L217.834 283.363V314.169ZM204.985 274.891L191.621 267.19V236.384L218.284 220.981L233.447 229.773L244.948 236.384V267.19L233.447 273.8L218.284 282.592L204.985 274.891ZM272.125 314.169L245.462 329.572L218.798 314.169V283.363L225.48 279.512L245.462 267.96L263.965 278.613L272.125 283.363V314.169Z" fill="#E7E7E7"/>
<path d="M326.609 314.04L299.945 329.443L273.282 314.04V283.234L284.846 276.56L299.945 267.831L326.609 283.234V314.04ZM259.404 274.763L246.04 267.061V236.255L259.404 228.554L272.768 220.852L299.431 236.255V267.061L286.067 274.763L272.703 282.464L259.404 274.763ZM327.508 313.591V282.721L300.331 267.061V235.742L273.217 220.082V188.763L245.59 172.846L217.963 188.763V220.082L190.785 235.742V267.061L163.608 282.721V313.719H-20.4663V314.618H163.737L191.299 330.534L218.477 314.875L245.654 330.534L272.832 314.875L300.009 330.534L327.637 314.618V314.554H367.921V313.655H327.508V313.591ZM218.927 189.276L245.59 173.873L272.254 189.276V220.082L264.094 224.831L245.59 235.485L225.609 223.933L218.927 220.082V189.276ZM217.963 314.04L191.299 329.443L164.636 314.04V283.234L191.299 267.831L206.398 276.56L217.963 283.234V314.04ZM205.113 274.763L191.749 267.061V236.255L218.413 220.852L233.576 229.645L245.076 236.255V267.061L233.64 273.672L218.477 282.464L205.113 274.763ZM272.254 314.04L245.59 329.443L218.927 314.04V283.234L225.609 279.384L245.59 267.831L264.094 278.485L272.254 283.234V314.04Z" fill="#E6E6E6"/>
<path d="M326.737 313.912L300.074 329.315L273.41 313.912V283.106L284.975 276.431L300.074 267.703L326.737 283.106V313.912ZM259.532 274.634L246.168 266.933V236.127L259.532 228.425L272.896 220.724L299.56 236.127V266.933L286.196 274.634L272.832 282.336L259.532 274.634ZM327.637 313.463V282.593L300.523 266.933V235.613L273.346 219.954V188.634L245.719 172.718L218.091 188.634V219.954L190.914 235.613V266.933L163.737 282.593V313.591H-20.3378V314.49H163.865L191.428 330.406L218.605 314.746L245.783 330.406L272.96 314.746L300.138 330.406L327.765 314.49V314.425H368.178V313.527H327.637V313.463ZM219.055 189.148L245.719 173.745L272.382 189.148V219.954L264.222 224.703L245.719 235.357L225.737 223.804L219.055 219.954V189.148ZM218.091 313.912L191.428 329.315L164.764 313.912V283.106L191.428 267.703L206.527 276.431L218.091 283.106V313.912ZM205.242 274.634L191.878 266.933V236.127L218.541 220.724L233.704 229.516L245.205 236.127V266.933L233.704 273.543L218.605 282.336L205.242 274.634ZM272.382 313.912L245.719 329.315L219.055 313.912V283.106L225.737 279.255L245.719 267.703L264.222 278.357L272.382 283.106V313.912Z" fill="#E5E5E5"/>
<path d="M326.866 313.784L300.202 329.187L273.474 313.784V282.978L285.039 276.303L300.138 267.575L326.801 282.978V313.784H326.866ZM259.661 274.442L246.297 266.74V235.934L259.661 228.233L273.025 220.531L299.688 235.934V266.74L286.324 274.442L272.96 282.143L259.661 274.442ZM327.829 313.27V282.4L300.652 266.74V235.485L273.474 219.825V188.442L245.847 172.525L218.22 188.442V219.761L191.107 235.485V266.804L163.929 282.464V313.463H-20.2093V314.361H163.994L191.556 330.278L218.734 314.618L245.911 330.278L273.089 314.618L300.266 330.278L327.894 314.361V314.297H368.306V313.398H327.829V313.27ZM219.184 189.019L245.847 173.616L272.511 189.019V219.825L264.351 224.575L245.847 235.164L225.866 223.612L219.184 219.761V189.019ZM218.22 313.784L191.556 329.187L164.893 313.784V282.978L191.556 267.575L206.655 276.303L218.22 282.978V313.784ZM205.37 274.442L192.006 266.74V235.934L218.67 220.531L233.833 229.324L245.333 235.934V266.74L233.833 273.351L218.67 282.143L205.37 274.442ZM272.575 313.784L245.911 329.187L219.248 313.784V282.978L225.93 279.127L245.911 267.575L264.415 278.228L272.575 282.978V313.784Z" fill="#E4E4E4"/>
<path d="M326.994 313.591L300.331 328.994L273.667 313.591V282.785L285.232 276.11L300.331 267.382L326.994 282.785V313.591ZM259.854 274.313L246.49 266.612V235.806L259.854 228.104L273.217 220.403L299.881 235.806V266.612L286.517 274.313L273.153 282.015L259.854 274.313ZM327.958 313.142V282.272L300.78 266.612V235.293L273.603 219.633V188.313L245.976 172.397L218.348 188.313V219.633L191.235 235.293V266.612L164.058 282.272V313.27H-20.0808V314.169H164.122L191.685 330.085L218.862 314.425L246.04 330.085L273.217 314.425L300.395 330.085L328.022 314.169V314.104H368.435V313.142H327.958ZM219.312 188.891L245.976 173.488L272.639 188.891V219.697L264.479 224.446L245.976 235.1L225.994 223.548L219.312 219.697V188.891ZM218.413 313.591L191.749 328.994L165.086 313.591V282.785L191.749 267.382L206.848 276.11L218.413 282.785V313.591ZM205.499 274.313L192.135 266.612V235.806L218.798 220.403L233.961 229.196L245.462 235.806V266.612L233.961 273.222L218.862 282.015L205.499 274.313ZM272.703 313.591L246.04 328.994L219.376 313.591V282.785L226.058 278.934L246.04 267.382L264.544 278.036L272.703 282.785V313.591Z" fill="#E3E3E3"/>
<path d="M327.122 313.463L300.459 328.866L273.796 313.463V282.657L285.36 275.982L300.459 267.254L327.122 282.657V313.463ZM259.982 274.185L246.618 266.484V235.678L259.982 227.976L273.346 220.275L300.009 235.678V266.484L286.645 274.185L273.282 281.887L259.982 274.185ZM328.086 313.013V282.143L300.909 266.484V235.164L273.731 219.504V188.185L246.104 172.269L218.477 188.185V219.504L191.299 235.164V266.484L164.122 282.143V313.142H-19.9523V314.04H164.25L191.813 329.957L218.991 314.297L246.168 329.957L273.346 314.297L300.523 329.957L328.15 314.04V313.976H368.563V313.078H328.086V313.013ZM219.441 188.763L246.104 173.36L272.768 188.763V219.569L264.608 224.318L246.104 234.972L226.123 223.419L219.441 219.569V188.763ZM218.541 313.463L191.878 328.866L165.214 313.463V282.657L191.878 267.254L206.976 275.982L218.541 282.657V313.463ZM205.627 274.185L192.263 266.484V235.678L218.927 220.275L234.089 229.067L245.59 235.678V266.484L234.089 273.094L218.927 281.887L205.627 274.185ZM272.832 313.463L246.168 328.866L219.505 313.463V282.657L226.187 278.806L246.168 267.254L264.672 277.907L272.832 282.657V313.463Z" fill="#E2E2E2"/>
<path d="M327.315 313.334L300.652 328.737L273.988 313.334V282.528L285.553 275.854L300.652 267.125L327.315 282.528V313.334ZM260.111 274.057L246.747 266.355V235.549L260.111 227.848L273.474 220.146L300.138 235.549V266.355L286.774 274.057L273.41 281.758L260.111 274.057ZM328.215 312.885V282.015L301.102 266.355V235.036L273.924 219.376V188.057L246.297 172.14L218.67 188.057V219.376L191.492 235.036V266.355L164.315 282.015V313.013H-19.7595V313.912H164.443L192.006 329.828L219.184 314.169L246.361 329.828L273.539 314.169L300.716 329.828L328.343 313.912V313.784H368.756V312.885H328.215ZM219.634 188.57L246.297 173.167L272.96 188.57V219.376L264.801 224.125L246.297 234.779L226.315 223.227L219.634 219.376V188.57ZM218.67 313.334L192.006 328.737L165.343 313.334V282.528L192.006 267.125L207.105 275.854L218.67 282.528V313.334ZM205.82 274.057L192.456 266.355V235.549L219.12 220.146L234.282 228.939L245.783 235.549V266.355L234.282 272.966L219.12 281.758L205.82 274.057ZM272.96 313.334L246.297 328.737L219.634 313.334V282.528L226.315 278.678L246.297 267.125L264.801 277.779L272.96 282.528V313.334Z" fill="#E1E1E1"/>
<path d="M327.444 313.206L300.78 328.609L274.117 313.206V282.4L285.682 275.725L300.78 266.997L327.444 282.4V313.206ZM260.239 273.928L246.875 266.227V235.421L260.239 227.719L273.603 220.018L300.266 235.421V266.227L286.902 273.928L273.539 281.63L260.239 273.928ZM328.343 312.757V281.887L301.166 266.227V234.907L273.988 219.248V187.928L246.361 172.012L218.734 187.928V219.248L191.556 234.907V266.227L164.379 281.887V312.885H-19.631V313.784H164.572L192.135 329.7L219.312 314.04L246.49 329.7L273.667 314.04L300.845 329.7L328.472 313.784V313.719H368.885V312.821H328.343V312.757ZM219.762 188.442L246.425 173.039L273.089 188.442V219.248L264.929 223.997L246.425 234.651L226.444 223.098L219.762 219.248V188.442ZM218.798 313.206L192.135 328.609L165.471 313.206V282.4L192.135 266.997L207.233 275.725L218.798 282.4V313.206ZM205.948 273.928L192.584 266.227V235.421L219.248 220.018L234.411 228.81L245.911 235.421V266.227L234.411 272.837L219.248 281.63L205.948 273.928ZM273.089 313.206L246.425 328.609L219.762 313.206V282.4L226.444 278.549L246.425 266.997L264.929 277.651L273.089 282.4V313.206Z" fill="#E0E0E0"/>
<path d="M327.572 313.078L300.909 328.481L274.245 313.078V282.272L285.81 275.597L300.909 266.869L327.572 282.272V313.078ZM260.368 273.8L247.004 266.098V235.293L260.368 227.591L273.731 219.89L300.395 235.293V266.098L287.031 273.8L273.667 281.501L260.368 273.8ZM328.536 312.628V281.758L301.359 266.098V234.779L274.181 219.119V187.8L246.554 171.884L218.927 187.8V219.119L191.749 234.779V266.098L164.572 281.758V312.757H-19.5026V313.655H164.7L192.263 329.572L219.441 313.912L246.618 329.572L273.796 313.912L300.973 329.572L328.6 313.655V313.591H369.013V312.693H328.536V312.628ZM219.89 188.313L246.554 172.91L273.217 188.313V219.119L265.058 223.869L246.554 234.522L226.572 222.97L219.89 219.119V188.313ZM218.927 313.078L192.263 328.481L165.6 313.078V282.272L192.263 266.869L207.362 275.597L218.927 282.272V313.078ZM206.077 273.8L192.713 266.098V235.293L219.376 219.89L234.539 228.682L246.04 235.293V266.098L234.604 272.709L219.441 281.501L206.077 273.8ZM273.282 313.078L246.618 328.481L219.955 313.078V282.272L226.637 278.421L246.618 266.869L265.122 277.522L273.282 282.272V313.078Z" fill="#DFDFDF"/>
<path d="M327.701 312.885L301.037 328.288L274.374 312.885V282.079L285.939 275.404L301.037 266.676L327.701 282.079V312.885ZM260.496 273.607L247.132 265.906V235.1L260.496 227.399L273.86 219.697L300.523 235.1V265.906L287.159 273.607L273.796 281.309L260.496 273.607ZM328.665 312.436V281.566L301.487 265.906V234.587L274.31 218.927V187.607L246.682 171.691L219.055 187.607V218.927L191.878 234.587V265.906L164.7 281.566V312.564H-19.3741V313.463H164.829L192.392 329.379L219.569 313.719L246.747 329.379L273.924 313.719L301.102 329.379L328.729 313.463V313.398H369.142V312.5H328.665V312.436ZM220.019 188.185L246.682 172.782L273.346 188.185V218.991L265.186 223.74L246.682 234.394L226.701 222.842L220.019 218.991V188.185ZM219.055 312.885L192.392 328.288L165.728 312.885V282.079L192.392 266.676L207.49 275.404L219.055 282.079V312.885ZM206.205 273.607L192.841 265.906V235.1L219.505 219.697L234.668 228.49L246.168 235.1V265.906L234.668 272.516L219.505 281.309L206.205 273.607ZM273.41 312.885L246.747 328.288L220.083 312.885V282.079L226.765 278.228L246.747 266.676L265.25 277.33L273.41 282.079V312.885Z" fill="#DEDEDE"/>
<path d="M327.829 312.757L301.166 328.16L274.502 312.757V281.951L286.067 275.276L301.166 266.548L327.829 281.951V312.757ZM260.689 273.479L247.325 265.778V234.972L260.689 227.27L274.053 219.569L300.716 234.972V265.778L287.352 273.479L273.988 281.181L260.689 273.479ZM328.793 312.307V281.437L301.616 265.778V234.458L274.502 218.799V187.479L246.875 171.563L219.248 187.479V218.799L192.07 234.458V265.778L164.893 281.437V312.436H-19.2455V313.334H164.957L192.52 329.251L219.698 313.591L246.875 329.251L274.053 313.591L301.23 329.251L328.857 313.334V313.27H369.206V312.372H328.793V312.307ZM220.147 188.057L246.811 172.654L273.474 188.057V218.863L265.315 223.612L246.875 234.201L226.894 222.649L220.212 218.799V188.057H220.147ZM219.248 312.757L192.584 328.16L165.921 312.757V281.951L192.584 266.548L207.683 275.276L219.248 281.951V312.757ZM206.334 273.479L192.97 265.778V234.972L219.633 219.569L234.796 228.361L246.297 234.972V265.778L234.796 272.388L219.633 281.181L206.334 273.479ZM273.539 312.757L246.875 328.16L220.212 312.757V281.951L226.894 278.1L246.875 266.548L265.379 277.201L273.539 281.951V312.757Z" fill="#DDDDDD"/>
<path d="M327.958 312.628L301.294 328.031L274.631 312.628V281.822L286.196 275.148L301.294 266.419L327.958 281.822V312.628ZM260.817 273.351L247.453 265.649V234.843L260.817 227.142L274.181 219.44L300.845 234.843V265.649L287.481 273.351L274.117 281.052L260.817 273.351ZM328.922 312.179V281.309L301.744 265.649V234.33L274.567 218.67V187.351L246.939 171.434L219.312 187.351V218.67L192.135 234.33V265.649L164.957 281.309V312.307H-19.1171V313.206H165.086L192.649 329.122L219.826 313.463L247.004 329.122L274.181 313.463L301.359 329.122L328.986 313.206V313.142H369.399V312.243H328.922V312.179ZM220.34 187.864L247.004 172.461L273.667 187.864V218.67L265.508 223.419L247.004 234.073L227.022 222.521L220.34 218.67V187.864ZM219.376 312.628L192.713 328.031L166.05 312.628V281.822L192.713 266.419L207.812 275.148L219.376 281.822V312.628ZM206.527 273.351L193.163 265.649V234.843L219.826 219.44L234.989 228.233L246.49 234.843V265.649L234.989 272.26L219.826 281.052L206.527 273.351ZM273.667 312.628L247.004 328.031L220.34 312.628V281.822L227.022 277.972L247.004 266.419L265.508 277.073L273.667 281.822V312.628Z" fill="#DCDCDC"/>
<path d="M328.151 312.5L301.487 327.903L274.759 312.5V281.694L286.324 275.019L301.423 266.291L328.086 281.694V312.5H328.151ZM260.946 273.222L247.582 265.521V234.715L260.946 227.013L274.31 219.312L300.973 234.715V265.521L287.609 273.222L274.245 280.924L260.946 273.222ZM329.05 312.051V281.181L301.873 265.521V234.201L274.759 218.542V187.222L247.132 171.306L219.505 187.222V218.542L192.327 234.201V265.521L165.15 281.181V312.179H-18.9243V313.078H165.279L192.841 328.994L220.019 313.334L247.196 328.994L274.374 313.334L301.551 328.994L329.179 313.078V313.013H369.591V312.115H329.05V312.051ZM220.469 187.736L247.132 172.333L273.796 187.736V218.542L265.636 223.291L247.132 233.945L227.151 222.393L220.469 218.542V187.736ZM219.505 312.5L192.841 327.903L166.178 312.5V281.694L192.841 266.291L207.94 275.019L219.505 281.694V312.5ZM206.655 273.222L193.291 265.521V234.715L219.955 219.312L235.118 228.104L246.618 234.715V265.521L235.118 272.131L219.955 280.924L206.655 273.222ZM273.796 312.5L247.132 327.903L220.469 312.5V281.694L227.151 277.843L247.132 266.291L265.636 276.945L273.796 281.694V312.5Z" fill="#DBDBDB"/>
<path d="M328.279 312.372L301.616 327.775L274.952 312.372V281.566L286.517 274.891L301.616 266.163L328.279 281.566V312.372ZM261.074 273.094L247.71 265.393V234.587L261.074 226.885L274.438 219.184L301.102 234.587V265.393L287.738 273.094L274.374 280.796L261.074 273.094ZM329.179 311.922V281.052L302.001 265.393V234.073L274.824 218.413V187.094L247.196 171.178L219.569 187.094V218.413L192.52 234.073V265.393L165.343 281.052V312.051H-18.7958V312.949H165.407L192.97 328.866L220.147 313.142L247.325 328.801L274.502 313.142L301.68 328.801L329.307 312.885V312.821H369.72V311.922H329.179ZM220.597 187.607L247.261 172.204L273.924 187.607V218.413L265.764 223.163L247.261 233.816L227.279 222.264L220.597 218.413V187.607ZM219.633 312.372L192.97 327.775L166.307 312.372V281.566L192.97 266.163L208.069 274.891L219.633 281.566V312.372ZM206.784 273.094L193.42 265.393V234.587L220.083 219.184L235.246 227.976L246.747 234.587V265.393L235.246 272.003L220.147 280.731L206.784 273.094ZM273.988 312.372L247.325 327.775L220.661 312.372V281.566L227.343 277.715L247.325 266.163L265.829 276.816L273.988 281.566V312.372Z" fill="#DADADA"/>
<path d="M328.408 312.243L301.744 327.646L275.081 312.243V281.437L286.646 274.763L301.744 266.034L328.408 281.437V312.243ZM261.203 272.901L247.839 265.2V234.394L261.203 226.693L274.567 218.991L301.23 234.394V265.2L287.866 272.901L274.502 280.603L261.203 272.901ZM329.371 311.73V280.86L302.194 265.2V233.881L275.016 218.221V186.901L247.389 170.985L219.762 186.901V218.221L192.584 233.881V265.2L165.407 280.86V311.858H-18.6673V312.757H165.536L193.098 328.673L220.276 313.013L247.453 328.673L274.631 313.013L301.808 328.673L329.436 312.757V312.693H369.848V311.794H329.371V311.73ZM220.726 187.479L247.389 172.076L274.053 187.479V218.285L265.893 223.034L247.389 233.688L227.408 222.136L220.726 218.285V187.479ZM219.762 312.243L193.098 327.646L166.435 312.243V281.437L193.098 266.034L208.197 274.763L219.762 281.437V312.243ZM206.912 272.901L193.548 265.2V234.394L220.212 218.991L235.375 227.784L246.875 234.394V265.2L235.375 271.81L220.212 280.603L206.912 272.901ZM274.117 312.243L247.453 327.646L220.79 312.243V281.437L227.472 277.587L247.453 266.034L265.957 276.688L274.117 281.437V312.243Z" fill="#D9D9D9"/>
<path d="M328.536 312.051L301.873 327.454L275.209 312.051V281.245L286.774 274.57L301.873 265.842L328.536 281.245V312.051ZM261.396 272.773L248.032 265.072V234.266L261.396 226.564L274.759 218.863L301.423 234.266V265.072L288.059 272.773L274.695 280.475L261.396 272.773ZM329.5 311.601V280.731L302.322 265.072V233.752L275.145 218.093V186.773L247.518 170.857L219.89 186.773V218.093L192.713 233.752V265.072L165.536 280.731V311.73H-18.5388V312.628H165.664L193.227 328.545L220.404 312.885L247.582 328.545L274.759 312.885L301.937 328.545L329.564 312.628V312.564H369.977V311.666H329.5V311.601ZM220.854 187.351L247.518 171.948L274.181 187.351V218.157L266.021 222.906L247.518 233.56L227.536 222.007L220.854 218.157V187.351ZM219.955 312.051L193.291 327.454L166.628 312.051V281.245L193.291 265.842L208.39 274.57L219.955 281.245V312.051ZM207.041 272.773L193.677 265.072V234.266L220.34 218.863L235.503 227.655L247.004 234.266V265.072L235.567 271.746L220.404 280.539L207.041 272.773ZM274.245 312.051L247.582 327.454L220.918 312.051V281.245L227.6 277.394L247.582 265.842L266.086 276.495L274.245 281.245V312.051Z" fill="#D9D9D9"/>
<path d="M328.665 311.922L302.001 327.325L275.338 311.922V281.116L286.902 274.442L302.001 265.713L328.665 281.116V311.922ZM261.524 272.645L248.16 264.943V234.137L261.524 226.436L274.888 218.734L301.551 234.137V264.943L288.187 272.645L274.824 280.346L261.524 272.645ZM329.628 311.473V280.603L302.451 264.943V233.624L275.273 217.964V186.645L247.646 170.728L220.019 186.645V217.964L192.841 233.624V264.943L165.664 280.603V311.602H-18.4103V312.5H165.792L193.355 328.416L220.533 312.757L247.71 328.416L274.888 312.757L302.065 328.416L329.693 312.5V312.436H370.105V311.537H329.628V311.473ZM220.983 187.222L247.646 171.819L274.31 187.222V218.028L266.15 222.778L247.646 233.431L227.665 221.879L220.983 218.028V187.222ZM220.083 311.922L193.42 327.325L166.756 311.922V281.116L193.42 265.713L208.518 274.442L220.083 281.116V311.922ZM207.169 272.645L193.805 264.943V234.137L220.469 218.734L235.632 227.527L247.132 234.137V264.943L235.632 271.554L220.469 280.346L207.169 272.645ZM274.374 311.922L247.71 327.325L221.047 311.922V281.116L227.729 277.266L247.71 265.713L266.214 276.367L274.374 281.116V311.922Z" fill="#D8D8D8"/>
<path d="M328.857 311.794L302.194 327.197L275.53 311.794V280.988L287.095 274.313L302.194 265.585L328.857 280.988V311.794ZM261.652 272.516L248.289 264.815V234.009L261.652 226.307L275.016 218.606L301.68 234.009V264.815L288.316 272.516L274.952 280.218L261.652 272.516ZM329.757 311.345V280.475L302.579 264.815V233.496L275.402 217.836V186.516L247.775 170.6L220.147 186.516V217.836L192.97 233.496V264.815L165.792 280.475V311.473H-18.2176V312.372H165.985L193.548 328.288L220.726 312.628L247.903 328.288L275.081 312.628L302.258 328.288L329.885 312.372V312.307H370.298V311.409H329.757V311.345ZM221.175 187.03L247.839 171.627L274.502 187.03V217.836L266.343 222.585L247.839 233.239L227.857 221.687L221.175 217.836V187.03ZM220.212 311.794L193.548 327.197L166.885 311.794V280.988L193.548 265.585L208.647 274.313L220.212 280.988V311.794ZM207.362 272.516L193.998 264.815V234.009L220.661 218.606L235.824 227.399L247.325 234.009V264.815L235.888 271.425L220.726 280.218L207.362 272.516ZM274.502 311.794L247.839 327.197L221.175 311.794V280.988L227.857 277.137L247.839 265.585L266.343 276.239L274.502 280.988V311.794Z" fill="#D7D7D7"/>
<path d="M328.986 311.666L302.322 327.069L275.659 311.666V280.86L287.224 274.185L302.322 265.457L328.986 280.86V311.666ZM261.781 272.388L248.417 264.687V233.881L261.781 226.179L275.145 218.478L301.808 233.881V264.687L288.444 272.388L275.081 280.09L261.781 272.388ZM329.885 311.216V280.346L302.708 264.687V233.367L275.53 217.707V186.388L247.903 170.472L220.276 186.388V217.707L193.163 233.367V264.687L165.985 280.346V311.345H-18.0891V312.243H166.114L193.677 328.16L220.79 312.5L247.967 328.16L275.145 312.5L302.322 328.16L329.95 312.243V312.179H370.362V311.216H329.885ZM221.304 186.901L247.967 171.499L274.631 186.901V217.707L266.471 222.457L247.967 233.11L227.986 221.558L221.304 217.707V186.901ZM220.34 311.666L193.677 327.069L167.013 311.666V280.86L193.677 265.457L208.775 274.185L220.34 280.86V311.666ZM207.49 272.388L194.126 264.687V233.881L220.79 218.478L235.953 227.27L247.453 233.881V264.687L235.953 271.297L220.79 280.09L207.49 272.388ZM274.631 311.666L247.967 327.069L221.304 311.666V280.86L227.986 277.009L247.967 265.457L266.471 276.11L274.631 280.86V311.666Z" fill="#D6D6D6"/>
<path d="M329.114 311.537L302.451 326.94L275.787 311.537V280.731L287.352 274.057L302.451 265.328L329.114 280.731V311.537ZM261.91 272.26L248.546 264.558V233.752L261.91 226.051L275.273 218.349L301.937 233.752V264.558L288.573 272.26L275.209 279.961L261.91 272.26ZM330.078 311.088V280.218L302.901 264.558V233.239L275.723 217.579V186.26L248.096 170.343L220.469 186.26V217.579L193.291 233.239V264.558L166.178 280.218V311.216H-17.9606V312.115H166.242L193.805 328.031L220.983 312.372L248.16 328.031L275.338 312.372L302.515 328.031L330.142 312.115V312.051H370.555V311.152H330.078V311.088ZM221.432 186.773L248.096 171.37L274.759 186.773V217.579L266.6 222.328L248.096 232.918L228.114 221.366L221.432 217.515V186.773ZM220.469 311.537L193.805 326.94L167.142 311.537V280.731L193.805 265.328L208.904 274.057L220.469 280.731V311.537ZM207.619 272.26L194.255 264.558V233.752L220.918 218.349L236.081 227.142L247.582 233.752V264.558L236.081 271.169L220.918 279.961L207.619 272.26ZM274.824 311.537L248.16 326.94L221.497 311.537V280.731L228.179 276.881L248.16 265.328L266.664 275.982L274.824 280.731V311.537Z" fill="#D5D5D5"/>
<path d="M329.243 311.345L302.579 326.748L275.916 311.345V280.539L287.481 273.864L302.579 265.136L329.243 280.539V311.345ZM262.038 272.067L248.674 264.366V233.56L262.038 225.858L275.402 218.157L302.065 233.56V264.366L288.701 272.067L275.402 279.769L262.038 272.067ZM330.207 310.896V280.025L303.029 264.366V233.046L275.852 217.387V186.067L248.224 170.151L220.597 186.067V217.387L193.42 233.046V264.366L166.242 280.025V311.024H-17.8321V311.922H166.371L193.934 327.839L221.111 312.179L248.289 327.839L275.466 312.179L302.644 327.839L330.271 311.922V311.858H370.684V310.96H330.207V310.896ZM221.561 186.645L248.224 171.242L274.888 186.645V217.451L266.728 222.2L248.224 232.854L228.243 221.301L221.561 217.451V186.645ZM220.661 311.345L193.998 326.748L167.334 311.345V280.539L193.998 265.136L209.097 273.864L220.661 280.539V311.345ZM207.747 272.067L194.448 264.366V233.56L221.111 218.157L236.274 226.949L247.775 233.56V264.366L236.274 270.976L221.111 279.769L207.747 272.067ZM274.952 311.345L248.289 326.748L221.625 311.345V280.539L228.307 276.688L248.289 265.136L266.792 275.79L274.952 280.539V311.345Z" fill="#D4D4D4"/>
<path d="M329.371 311.216L302.708 326.619L276.044 311.216V280.41L287.609 273.736L302.708 265.007L329.371 280.41V311.216ZM262.231 271.939L248.867 264.237V233.431L262.231 225.73L275.595 218.028L302.258 233.431V264.237L288.894 271.939L275.53 279.64L262.231 271.939ZM330.335 310.767V279.897L303.158 264.237V232.918L276.044 217.258V185.939L248.417 170.022L220.79 185.939V217.258L193.612 232.918V264.237L166.435 279.897V310.896H-17.7036V311.794H166.499L194.062 327.71L221.24 312.051L248.417 327.71L275.595 312.051L302.772 327.71L330.399 311.794V311.73H370.812V310.831H330.335V310.767ZM221.689 186.516L248.353 171.113L275.016 186.516V217.322L266.857 222.072L248.417 232.661L228.436 221.109L221.754 217.258V186.516H221.689ZM220.79 311.216L194.126 326.619L167.463 311.216V280.41L194.126 265.007L209.225 273.736L220.79 280.41V311.216ZM207.876 271.939L194.512 264.237V233.431L221.175 218.028L236.338 226.821L247.839 233.431V264.237L236.338 270.848L221.175 279.64L207.876 271.939ZM275.081 311.216L248.417 326.619L221.754 311.216V280.41L228.436 276.56L248.417 265.007L266.921 275.661L275.081 280.41V311.216Z" fill="#D3D3D3"/>
<path d="M329.5 311.088L302.836 326.491L276.173 311.088V280.282L287.738 273.607L302.836 264.879L329.5 280.282V311.088ZM262.359 271.81L248.995 264.109V233.303L262.359 225.601L275.723 217.9L302.387 233.303V264.109L289.023 271.81L275.659 279.512L262.359 271.81ZM330.464 310.639V279.769L303.286 264.109V232.79L276.109 217.13V185.81L248.481 169.894L220.854 185.81V217.13L193.677 232.79V264.109L166.628 279.769V310.767H-17.5751V311.666H166.628L194.191 327.582L221.368 311.922L248.546 327.582L275.723 311.922L302.901 327.582L330.528 311.666V311.601H370.941V310.703H330.464V310.639ZM221.882 186.324L248.546 170.921L275.209 186.324V217.13L267.049 221.879L248.546 232.533L228.564 220.981L221.882 217.13V186.324ZM220.918 311.088L194.255 326.491L167.591 311.088V280.282L194.255 264.879L209.354 273.607L220.918 280.282V311.088ZM208.069 271.81L194.705 264.109V233.303L221.368 217.9L236.531 226.693L248.032 233.303V264.109L236.531 270.719L221.368 279.512L208.069 271.81ZM275.209 311.088L248.546 326.491L221.882 311.088V280.282L228.564 276.431L248.546 264.879L267.049 275.533L275.209 280.282V311.088Z" fill="#D2D2D2"/>
<path d="M329.693 310.96L303.029 326.363L276.366 310.96V280.154L287.931 273.479L303.029 264.751L329.693 280.154V310.96ZM262.488 271.682L249.124 263.981V233.175L262.488 225.473L275.852 217.772L302.515 233.175V263.981L289.151 271.682L275.787 279.384L262.488 271.682ZM330.592 310.51V279.64L303.415 263.981V232.661L276.237 217.001V185.682L248.61 169.766L220.983 185.682V217.001L193.805 232.661V263.981L166.628 279.64V310.639H-17.3823V311.537H166.821L194.383 327.454L221.561 311.794L248.738 327.454L275.916 311.794L303.093 327.454L330.721 311.537V311.473H371.133V310.575H330.592V310.51ZM222.011 186.196L248.674 170.793L275.338 186.196V217.001L267.178 221.751L248.674 232.404L228.693 220.852L222.011 217.001V186.196ZM221.047 310.96L194.383 326.363L167.72 310.96V280.154L194.383 264.751L209.482 273.479L221.047 280.154V310.96ZM208.197 271.682L194.833 263.981V233.175L221.497 217.772L236.66 226.564L248.16 233.175V263.981L236.66 270.591L221.497 279.384L208.197 271.682ZM275.338 310.96L248.674 326.363L222.011 310.96V280.154L228.693 276.303L248.674 264.751L267.178 275.404L275.338 280.154V310.96Z" fill="#D1D1D1"/>
<path d="M329.821 310.831L303.158 326.234L276.494 310.831V280.025L288.059 273.351L303.158 264.622L329.821 280.025V310.831ZM262.616 271.554L249.252 263.852V233.046L262.616 225.345L275.98 217.643L302.644 233.046V263.852L289.28 271.554L275.916 279.255L262.616 271.554ZM330.721 310.382V279.512L303.543 263.852V232.533L276.43 216.873V185.554L248.803 169.637L221.175 185.554V216.873L193.998 232.533V263.852L166.82 279.512V310.51H-17.2538V311.409H166.949L194.512 327.325L221.689 311.666L248.867 327.325L276.044 311.666L303.222 327.325L330.849 311.409V311.345H371.133V310.446H330.721V310.382ZM222.139 186.067L248.803 170.664L275.466 186.067V216.873L267.306 221.622L248.803 232.276L228.821 220.724L222.139 216.873V186.067ZM221.175 310.831L194.512 326.234L167.848 310.831V280.025L194.512 264.622L209.611 273.351L221.175 280.025V310.831ZM208.326 271.554L194.962 263.852V233.046L221.625 217.643L236.788 226.436L248.289 233.046V263.852L236.852 270.463L221.689 279.255L208.326 271.554ZM275.53 310.831L248.867 326.234L222.203 310.831V280.025L228.885 276.175L248.867 264.622L267.371 275.276L275.53 280.025V310.831Z" fill="#D0D0D0"/>
<path d="M329.95 310.703L303.286 326.106L276.623 310.703V279.897L288.188 273.222L303.286 264.494L329.95 279.897V310.703ZM262.745 271.361L249.381 263.66V232.854L262.745 225.152L276.109 217.451L302.772 232.854V263.66L289.408 271.361L276.044 279.063L262.745 271.361ZM330.913 310.19V279.319L303.736 263.724V232.404L276.558 216.745V185.361L248.931 169.445L221.304 185.361V216.681L194.126 232.34V263.724L166.949 279.384V310.382H-17.1253V311.281H167.078L194.64 327.197L221.818 311.537L248.995 327.197L276.173 311.537L303.35 327.197L330.978 311.281V311.216H371.39V310.318H330.913V310.19ZM222.268 185.939L248.931 170.536L275.595 185.939V216.745L267.435 221.494L248.931 232.148L228.95 220.596L222.268 216.745V185.939ZM221.304 310.703L194.64 326.106L167.977 310.703V279.897L194.64 264.494L209.739 273.222L221.304 279.897V310.703ZM208.454 271.361L195.09 263.724V232.918L221.754 217.515L236.917 226.307L248.417 232.918V263.724L236.917 270.334L221.754 279.127L208.454 271.361ZM275.659 310.703L248.995 326.106L222.332 310.703V279.897L229.014 276.046L248.995 264.494L267.499 275.148L275.659 279.897V310.703Z" fill="#CFCFCF"/>
<path d="M330.078 310.51L303.415 325.913L276.751 310.51V279.704L288.316 273.03L303.415 264.301L330.078 279.704V310.51ZM262.938 271.233L249.574 263.531V232.725L262.938 225.024L276.301 217.322L302.965 232.725V263.531L289.601 271.233L276.237 278.934L262.938 271.233ZM331.042 310.061V279.191L303.864 263.531V232.212L276.687 216.552V185.233L249.06 169.316L221.432 185.233V216.552L194.255 232.212V263.531L167.077 279.191V310.19H-16.9968V311.088H167.206L194.769 327.004L221.946 311.345L249.124 327.004L276.301 311.345L303.479 327.004L331.106 311.088V311.024H371.519V310.125H331.042V310.061ZM222.396 185.81L249.06 170.407L275.723 185.81V216.616L267.563 221.366L249.06 232.019L229.078 220.467L222.396 216.616V185.81ZM221.497 310.51L194.833 325.913L168.17 310.51V279.704L194.833 264.301L209.932 273.03L221.497 279.704V310.51ZM208.583 271.233L195.219 263.531V232.725L221.882 217.322L237.045 226.115L248.546 232.725V263.531L237.045 270.142L221.882 278.934L208.583 271.233ZM275.787 310.51L249.124 325.913L222.46 310.51V279.704L229.142 275.854L249.124 264.301L267.628 274.955L275.787 279.704V310.51Z" fill="#CECECE"/>
<path d="M330.207 310.382L303.543 325.785L276.88 310.382V279.576L288.444 272.901L303.543 264.173L330.207 279.576V310.382ZM263.066 271.104L249.702 263.403V232.597L263.066 224.896L276.43 217.194L303.093 232.597V263.403L289.729 271.104L276.366 278.806L263.066 271.104ZM331.17 309.933V279.063L303.993 263.403V232.084L276.815 216.424V185.104L249.188 169.188L221.561 185.104V216.424L194.448 232.084V263.403L167.27 279.063V310.061H-16.8683V310.96H167.334L194.897 326.876L222.075 311.216L249.252 326.876L276.43 311.216L303.607 326.876L331.235 310.96V310.896H371.647V309.933H331.17ZM222.525 185.682L249.188 170.279L275.852 185.682V216.488L267.692 221.237L249.188 231.891L229.207 220.339L222.525 216.488V185.682ZM221.625 310.382L194.962 325.785L168.298 310.382V279.576L194.962 264.173L210.06 272.901L221.625 279.576V310.382ZM208.711 271.104L195.347 263.403V232.597L222.011 217.194L237.174 225.987L248.674 232.597V263.403L237.174 270.013L222.075 278.806L208.711 271.104ZM275.916 310.382L249.252 325.785L222.589 310.382V279.576L229.271 275.725L249.252 264.173L267.756 274.827L275.916 279.576V310.382Z" fill="#CDCDCD"/>
<path d="M330.399 310.254L303.736 325.657L277.072 310.254V279.448L288.637 272.773L303.736 264.045L330.399 279.448V310.254ZM263.194 270.976L249.831 263.275V232.469L263.194 224.767L276.558 217.066L303.222 232.469V263.275L289.858 270.976L276.494 278.678L263.194 270.976ZM331.299 309.804V278.934L304.121 263.275V231.955L276.944 216.296V184.976L249.317 169.06L221.689 184.976V216.296L194.512 231.955V263.275L167.463 278.934V309.933H-16.6756V310.831H167.527L195.09 326.748L222.268 311.088L249.445 326.748L276.623 311.088L303.8 326.748L331.427 310.831V310.767H371.84V309.869H331.299V309.804ZM222.717 185.49L249.381 170.087L276.044 185.49V216.296L267.885 221.045L249.381 231.699L229.399 220.146L222.717 216.296V185.49ZM221.754 310.254L195.09 325.657L168.427 310.254V279.448L195.09 264.045L210.189 272.773L221.754 279.448V310.254ZM208.904 270.976L195.54 263.275V232.469L222.203 217.066L237.366 225.858L248.867 232.469V263.275L237.366 269.885L222.203 278.678L208.904 270.976ZM276.044 310.254L249.381 325.657L222.717 310.254V279.448L229.399 275.597L249.381 264.045L267.885 274.699L276.044 279.448V310.254Z" fill="#CCCCCC"/>
<path d="M330.528 310.125L303.864 325.528L277.201 310.125V279.319L288.766 272.645L303.864 263.916L330.528 279.319V310.125ZM263.323 270.848L249.959 263.146V232.34L263.323 224.639L276.687 216.937L303.35 232.34V263.146L289.987 270.848L276.623 278.549L263.323 270.848ZM331.427 309.676V278.806L304.314 263.146V231.827L277.137 216.167V184.848L249.509 168.931L221.882 184.848V216.167L194.705 231.827V263.146L167.527 278.806V309.804H-16.5471V310.703H167.656L195.219 326.619L222.396 310.96L249.574 326.619L276.751 310.96L303.929 326.619L331.556 310.703V310.575H371.969V309.676H331.427ZM222.846 185.361L249.509 169.958L276.173 185.361V216.167L268.013 220.916L249.509 231.57L229.528 220.018L222.846 216.167V185.361ZM221.882 310.125L195.219 325.528L168.555 310.125V279.319L195.219 263.916L210.317 272.645L221.882 279.319V310.125ZM209.032 270.848L195.668 263.146V232.34L222.332 216.937L237.495 225.73L248.995 232.34V263.146L237.495 269.757L222.332 278.549L209.032 270.848ZM276.173 310.125L249.509 325.528L222.846 310.125V279.319L229.528 275.469L249.509 263.916L268.013 274.57L276.173 279.319V310.125Z" fill="#CBCBCB"/>
<path d="M330.656 309.997L303.993 325.4L277.329 309.997V279.191L288.894 272.516L303.993 263.788L330.656 279.191V309.997ZM263.451 270.655L250.088 262.954V232.148L263.451 224.446L276.815 216.745L303.479 232.148V262.954L290.115 270.655L276.751 278.357L263.451 270.655ZM331.62 309.548V278.678L304.443 263.018V231.699L277.265 216.039V184.719L249.638 168.803L222.011 184.719V216.039L194.833 231.699V263.018L167.656 278.678V309.676H-16.4186V310.575H167.784L195.347 326.491L222.525 310.831L249.702 326.491L276.88 310.831L304.057 326.491L331.684 310.575V310.51H372.097V309.612H331.62V309.548ZM222.974 185.233L249.638 169.83L276.301 185.233V216.039L268.142 220.788L249.638 231.442L229.656 219.89L222.974 216.039V185.233ZM222.011 309.997L195.347 325.4L168.684 309.997V279.191L195.347 263.788L210.446 272.516L222.011 279.191V309.997ZM209.161 270.655L195.797 262.954V232.148L222.46 216.745L237.623 225.537L249.124 232.148V262.954L237.623 269.564L222.46 278.357L209.161 270.655ZM276.366 309.997L249.702 325.4L223.039 309.997V279.191L229.721 275.34L249.702 263.788L268.206 274.442L276.366 279.191V309.997Z" fill="#CACACA"/>
<path d="M330.785 309.804L304.121 325.207L277.458 309.804V278.999L289.023 272.324L304.121 263.596L330.785 278.999V309.804ZM263.644 270.527L250.28 262.825V232.019L263.644 224.318L277.008 216.616L303.672 232.019V262.825L290.308 270.527L276.944 278.228L263.644 270.527ZM331.749 309.355V278.485L304.571 262.825V231.506L277.394 215.846V184.527L249.766 168.61L222.139 184.527V215.846L194.962 231.506V262.825L167.848 278.485V309.484H-16.2901V310.382H167.913L195.476 326.299L222.653 310.639L249.831 326.299L277.008 310.639L304.186 326.299L331.813 310.382V310.318H372.226V309.419H331.749V309.355ZM223.103 185.104L249.766 169.702L276.43 185.104V215.91L268.27 220.66L249.766 231.313L229.785 219.761L223.103 215.91V185.104ZM222.203 309.804L195.54 325.207L168.876 309.804V278.999L195.54 263.596L210.639 272.324L222.203 278.999V309.804ZM209.289 270.527L195.925 262.825V232.019L222.589 216.616L237.752 225.409L249.252 232.019V262.825L237.816 269.5L222.653 278.293L209.289 270.527ZM276.494 309.804L249.831 325.207L223.167 309.804V278.999L229.849 275.148L249.831 263.596L268.334 274.249L276.494 278.999V309.804Z" fill="#C9C9C9"/>
<path d="M330.913 309.676L304.25 325.079L277.586 309.676V278.87L289.151 272.196L304.25 263.467L330.913 278.87V309.676ZM263.773 270.399L250.409 262.697V231.891L263.773 224.19L277.137 216.488L303.8 231.891V262.697L290.436 270.399L277.072 278.1L263.773 270.399ZM331.877 309.227V278.357L304.7 262.697V231.378L277.522 215.718V184.399L249.895 168.482L222.268 184.399V215.718L195.09 231.378V262.697L167.913 278.357V309.355H-16.1616V310.254H168.105L195.668 326.17L222.846 310.51L250.023 326.17L277.201 310.51L304.378 326.17L332.005 310.254V310.19H372.418V309.291H331.877V309.227ZM223.231 184.976L249.895 169.573L276.558 184.976V215.782L268.399 220.531L249.895 231.185L229.913 219.633L223.231 215.782V184.976ZM222.332 309.676L195.668 325.079L169.005 309.676V278.87L195.668 263.467L210.767 272.196L222.332 278.87V309.676ZM209.418 270.399L196.054 262.697V231.891L222.717 216.488L237.88 225.281L249.381 231.891V262.697L237.88 269.307L222.717 278.1L209.418 270.399ZM276.623 309.676L249.959 325.079L223.296 309.676V278.87L229.978 275.019L249.959 263.467L268.463 274.121L276.623 278.87V309.676Z" fill="#C8C8C8"/>
<path d="M331.042 309.548L304.378 324.951L277.715 309.548V278.742L289.28 272.067L304.378 263.339L331.042 278.742V309.548ZM263.901 270.27L250.537 262.569V231.763L263.901 224.061L277.265 216.36L303.929 231.763V262.569L290.565 270.27L277.201 277.972L263.901 270.27ZM332.005 309.099V278.228L304.828 262.569V231.249L277.715 215.59V184.27L250.088 168.354L222.46 184.27V215.59L195.283 231.249V262.569L168.105 278.228V309.227H-16.0331V310.125H168.17L195.733 326.042L222.91 310.382L250.088 326.042L277.265 310.382L304.443 326.042L332.07 310.125V310.061H372.418V309.163H332.005V309.099ZM223.424 184.784L250.088 169.381L276.751 184.784V215.59L268.591 220.339L250.088 230.993L230.106 219.44L223.424 215.59V184.784ZM222.46 309.548L195.797 324.951L169.133 309.548V278.742L195.797 263.339L210.896 272.067L222.46 278.742V309.548ZM209.611 270.27L196.247 262.569V231.763L222.91 216.36L238.073 225.152L249.574 231.763V262.569L238.137 269.179L222.974 277.972L209.611 270.27ZM276.751 309.548L250.088 324.951L223.424 309.548V278.742L230.106 274.891L250.088 263.339L268.591 273.993L276.751 278.742V309.548Z" fill="#C7C7C7"/>
<path d="M331.235 309.419L304.571 324.822L277.908 309.419V278.613L289.472 271.939L304.571 263.21L331.235 278.613V309.419ZM264.03 270.142L250.666 262.44V231.634L264.03 223.933L277.394 216.231L304.057 231.634V262.44L290.693 270.142L277.329 277.843L264.03 270.142ZM332.134 308.97V278.1L305.021 262.44V231.121L277.843 215.461V184.142L250.216 168.225L222.589 184.142V215.461L195.411 231.121V262.44L168.234 278.1V309.098H-15.8403V309.997H168.362L195.925 325.913L223.103 310.254L250.28 325.913L277.458 310.254L304.635 325.913L332.263 309.997V309.933H372.675V309.034H332.134V308.97ZM223.553 184.655L250.216 169.252L276.88 184.655V215.461L268.72 220.21L250.216 230.864L230.235 219.312L223.553 215.461V184.655ZM222.589 309.419L195.925 324.822L169.262 309.419V278.613L195.925 263.21L211.024 271.939L222.589 278.613V309.419ZM209.739 270.142L196.375 262.44V231.634L223.039 216.231L238.202 225.024L249.702 231.634V262.44L238.202 269.051L223.039 277.843L209.739 270.142ZM276.88 309.419L250.216 324.822L223.553 309.419V278.613L230.235 274.763L250.216 263.21L268.72 273.864L276.88 278.613V309.419Z" fill="#C6C6C6"/>
<path d="M331.363 309.291L304.7 324.694L277.972 309.291V278.485L289.537 271.81L304.635 263.082L331.299 278.485V309.291H331.363ZM264.158 270.013L250.794 262.312V231.506L264.158 223.804L277.522 216.103L304.186 231.506V262.312L290.822 270.013L277.458 277.715L264.158 270.013ZM332.327 308.842V277.972L305.149 262.312V230.993L277.972 215.333V184.013L250.345 168.097L222.717 184.013V215.333L195.604 230.993V262.312L168.427 277.972V308.97H-15.7119V309.869H168.491L196.054 325.785L223.231 310.125L250.409 325.785L277.586 310.125L304.764 325.785L332.391 309.869V309.804H372.804V308.906H332.327V308.842ZM223.681 184.527L250.345 169.124L277.008 184.527V215.333L268.848 220.082L250.345 230.672L230.363 219.119L223.681 215.269V184.527ZM222.717 309.291L196.054 324.694L169.39 309.291V278.485L196.054 263.082L211.153 271.81L222.717 278.485V309.291ZM209.868 270.013L196.504 262.312V231.506L223.167 216.103L238.33 224.896L249.831 231.506V262.312L238.33 268.922L223.167 277.715L209.868 270.013ZM277.072 309.291L250.409 324.694L223.745 309.291V278.485L230.427 274.634L250.409 263.082L268.913 273.736L277.072 278.485V309.291Z" fill="#C5C5C5"/>
<path d="M331.492 309.163L304.828 324.566L278.165 309.163V278.357L289.729 271.682L304.828 262.954L331.492 278.357V309.163ZM264.287 269.821L250.923 262.119V231.313L264.287 223.612L277.651 215.91L304.314 231.313V262.119L290.95 269.821L277.586 277.522L264.287 269.821ZM332.455 308.649V277.843L305.278 262.184V230.864L278.1 215.204V183.821L250.473 167.904L222.846 183.821V215.14L195.733 230.8V262.119L168.555 277.843V308.842H-15.5833V309.74H168.62L196.182 325.657L223.36 309.933L250.537 325.593L277.715 309.933L304.892 325.593L332.52 309.676V309.612H372.932V308.649H332.455ZM223.81 184.399L250.473 168.996L277.137 184.399V215.204L268.977 219.954L250.473 230.607L230.492 219.055L223.81 215.204V184.399ZM222.846 309.163L196.182 324.566L169.519 309.163V278.357L196.182 262.954L211.281 271.682L222.846 278.357V309.163ZM209.996 269.821L196.632 262.119V231.313L223.296 215.91L238.459 224.703L249.959 231.313V262.119L238.459 268.73L223.36 277.522L209.996 269.821ZM277.201 309.163L250.537 324.566L223.874 309.163V278.357L230.556 274.506L250.537 262.954L269.041 273.607L277.201 278.357V309.163Z" fill="#C4C4C4"/>
<path d="M331.62 308.97L304.957 324.373L278.293 308.97V278.164L289.858 271.49L304.957 262.761L331.62 278.164V308.97ZM264.48 269.693L251.116 261.991V231.185L264.48 223.484L277.843 215.782L304.507 231.185V261.991L291.143 269.693L277.779 277.394L264.48 269.693ZM332.584 308.521V277.651L305.406 261.991V230.672L278.229 215.012V183.693L250.602 167.776L222.974 183.693V215.012L195.797 230.672V261.991L168.62 277.651V308.649H-15.4548V309.548H168.748L196.311 325.464L223.488 309.804L250.666 325.464L277.843 309.804L305.021 325.464L332.648 309.548V309.484H373.061V308.585H332.584V308.521ZM223.938 184.27L250.602 168.867L277.265 184.27V215.076L269.105 219.825L250.602 230.479L230.62 218.927L223.938 215.076V184.27ZM223.039 308.97L196.375 324.373L169.712 308.97V278.164L196.375 262.761L211.474 271.49L223.039 278.164V308.97ZM210.125 269.693L196.761 261.991V231.185L223.424 215.782L238.587 224.575L250.088 231.185V261.991L238.587 268.601L223.424 277.394L210.125 269.693ZM277.329 308.97L250.666 324.373L224.002 308.97V278.164L230.684 274.313L250.666 262.761L269.17 273.415L277.329 278.164V308.97Z" fill="#C3C3C3"/>
<path d="M331.749 308.842L305.085 324.245L278.422 308.842V278.036L289.986 271.361L305.085 262.633L331.749 278.036V308.842ZM264.608 269.564L251.244 261.863V231.057L264.608 223.355L277.972 215.654L304.635 231.057V261.863L291.271 269.564L277.908 277.266L264.608 269.564ZM332.712 308.393V277.522L305.535 261.863V230.543L278.357 214.884V183.564L250.73 167.648L223.103 183.564V214.884L195.925 230.543V261.863L168.748 277.522V308.521H-15.3264V309.419H168.876L196.439 325.336L223.617 309.676L250.794 325.336L277.972 309.676L305.149 325.336L332.777 309.419V309.291H373.189V308.393H332.712ZM224.067 184.142L250.73 168.739L277.394 184.142V214.948L269.234 219.697L250.73 230.351L230.749 218.798L224.067 214.948V184.142ZM223.167 308.842L196.504 324.245L169.84 308.842V278.036L196.504 262.633L211.602 271.361L223.167 278.036V308.842ZM210.253 269.564L196.889 261.863V231.057L223.553 215.654L238.715 224.446L250.216 231.057V261.863L238.715 268.473L223.553 277.266L210.253 269.564ZM277.458 308.842L250.794 324.245L224.131 308.842V278.036L230.813 274.185L250.794 262.633L269.298 273.287L277.458 278.036V308.842Z" fill="#C2C2C2"/>
<path d="M331.941 308.713L305.278 324.116L278.614 308.713V277.907L290.179 271.233L305.278 262.504L331.941 277.907V308.713ZM264.736 269.436L251.373 261.734V230.928L264.736 223.227L278.1 215.525L304.764 230.928V261.734L291.4 269.436L278.036 277.137L264.736 269.436ZM332.841 308.264V277.394L305.663 261.734V230.415L278.486 214.755V183.436L250.859 167.519L223.231 183.436V214.755L196.054 230.415V261.734L168.876 277.394V308.393H-15.1336V309.291H169.069L196.632 325.207L223.81 309.548L250.987 325.207L278.165 309.548L305.342 325.207L332.969 309.291V309.227H373.382V308.328H332.841V308.264ZM224.259 183.949L250.923 168.546L277.586 183.949V214.755L269.427 219.504L250.923 230.158L230.941 218.606L224.259 214.755V183.949ZM223.296 308.713L196.632 324.116L169.969 308.713V277.907L196.632 262.504L211.731 271.233L223.296 277.907V308.713ZM210.446 269.436L197.082 261.734V230.928L223.745 215.525L238.908 224.318L250.409 230.928V261.734L238.908 268.345L223.745 277.137L210.446 269.436ZM277.586 308.713L250.923 324.116L224.259 308.713V277.907L230.941 274.057L250.923 262.504L269.427 273.158L277.586 277.907V308.713Z" fill="#C1C1C1"/>
<path d="M332.07 308.585L305.406 323.988L278.743 308.585V277.779L290.308 271.104L305.406 262.376L332.07 277.779V308.585ZM264.865 269.307L251.501 261.606V230.8L264.865 223.099L278.229 215.397L304.892 230.8V261.606L291.528 269.307L278.165 277.009L264.865 269.307ZM332.969 308.136V277.266L305.792 261.606V230.287L278.614 214.627V183.307L250.987 167.391L223.36 183.307V214.627L196.182 230.287V261.606L169.005 277.266V308.264H-15.0051V309.163H169.198L196.761 325.079L223.938 309.419L251.116 325.079L278.293 309.419L305.471 325.079L333.098 309.163V309.099H373.511V308.2H332.969V308.136ZM224.388 183.821L251.051 168.418L277.715 183.821V214.627L269.555 219.376L251.051 230.03L231.07 218.478L224.388 214.627V183.821ZM223.424 308.585L196.761 323.988L170.097 308.585V277.779L196.761 262.376L211.859 271.104L223.424 277.779V308.585ZM210.574 269.307L197.21 261.606V230.8L223.874 215.397L239.037 224.19L250.537 230.8V261.606L239.101 268.216L223.938 277.009L210.574 269.307ZM277.715 308.585L251.051 323.988L224.388 308.585V277.779L231.07 273.928L251.051 262.376L269.555 273.03L277.715 277.779V308.585Z" fill="#C0C0C0"/>
<path d="M332.198 308.457L305.535 323.86L278.871 308.457V277.651L290.436 270.976L305.535 262.248L332.198 277.651V308.457ZM264.993 269.115L251.63 261.413V230.607L264.993 222.906L278.357 215.204L305.021 230.607V261.413L291.657 269.115L278.293 276.816L264.993 269.115ZM333.162 308.007V277.137L305.985 261.478V230.158L278.807 214.499V183.179L251.18 167.263L223.553 183.179V214.499L196.375 230.158V261.478L169.198 277.137V308.136H-14.8766V309.034H169.326L196.889 324.951L224.067 309.291L251.244 324.951L278.422 309.291L305.599 324.951L333.226 309.034V308.97H373.639V308.007H333.162ZM224.516 183.693L251.18 168.29L277.843 183.693V214.499L269.684 219.248L251.18 229.902L231.198 218.349L224.516 214.499V183.693ZM223.553 308.457L196.889 323.86L170.226 308.457V277.651L196.889 262.248L211.988 270.976L223.553 277.651V308.457ZM210.703 269.115L197.339 261.413V230.607L224.002 215.204L239.165 223.997L250.666 230.607V261.413L239.165 268.024L224.002 276.816L210.703 269.115ZM277.908 308.457L251.244 323.86L224.581 308.457V277.651L231.263 273.8L251.244 262.248L269.748 272.901L277.908 277.651V308.457Z" fill="#BFBFBF"/>
<path d="M332.327 308.264L305.663 323.667L279 308.264V277.458L290.565 270.784L305.663 262.055L332.327 277.458V308.264ZM265.186 268.987L251.822 261.285V230.479L265.186 222.778L278.55 215.076L305.214 230.479V261.285L291.85 268.987L278.486 276.688L265.186 268.987ZM333.29 307.815V276.945L306.113 261.285V229.966L279 214.306V182.987L251.373 167.07L223.745 182.987V214.306L196.568 229.966V261.285L169.39 276.945V307.943H-14.7481V308.842H169.455L197.018 324.758L224.195 309.098L251.373 324.758L278.55 309.098L305.728 324.758L333.355 308.842V308.778H373.703V307.879H333.29V307.815ZM224.645 183.564L251.308 168.161L277.972 183.564V214.37L269.812 219.119L251.373 229.709L231.391 218.157L224.645 214.306V183.564ZM223.745 308.264L197.082 323.667L170.418 308.264V277.458L197.082 262.055L212.181 270.784L223.745 277.458V308.264ZM210.831 268.987L197.467 261.285V230.479L224.131 215.076L239.294 223.869L250.794 230.479V261.285L239.294 267.896L224.131 276.688L210.831 268.987ZM278.036 308.264L251.373 323.667L224.709 308.264V277.458L231.391 273.607L251.373 262.055L269.876 272.709L278.036 277.458V308.264Z" fill="#BEBEBE"/>
<path d="M332.455 308.136L305.792 323.539L279.128 308.136V277.33L290.693 270.655L305.792 261.927L332.455 277.33V308.136ZM265.315 268.858L251.951 261.157V230.351L265.315 222.649L278.679 214.948L305.342 230.351V261.157L291.978 268.858L278.614 276.56L265.315 268.858ZM333.419 307.687V276.816L306.241 261.157V229.837L279.064 214.178V182.858L251.437 166.942L223.81 182.858V214.178L196.632 229.837V261.157L169.455 276.816V307.815H-14.6196V308.713H169.583L197.146 324.63L224.324 308.97L251.501 324.63L278.679 308.97L305.856 324.63L333.483 308.713V308.649H373.896V307.751H333.419V307.687ZM224.773 183.436L251.437 168.033L278.1 183.436V214.242L269.941 218.991L251.437 229.645L231.455 218.093L224.773 214.242V183.436ZM223.874 308.136L197.21 323.539L170.547 308.136V277.33L197.21 261.927L212.309 270.655L223.874 277.33V308.136ZM210.96 268.858L197.66 261.157V230.351L224.324 214.948L239.486 223.74L250.987 230.351V261.157L239.486 267.767L224.324 276.56L210.96 268.858ZM278.165 308.136L251.501 323.539L224.838 308.136V277.33L231.52 273.479L251.501 261.927L270.005 272.581L278.165 277.33V308.136Z" fill="#BDBDBD"/>
<path d="M332.584 308.007L305.92 323.41L279.257 308.007V277.202L290.822 270.527L305.92 261.799L332.584 277.202V308.007ZM265.443 268.73L252.079 261.028V230.222L265.443 222.521L278.807 214.819L305.471 230.222V261.028L292.107 268.73L278.743 276.431L265.443 268.73ZM333.548 307.558V276.688L306.37 261.028V229.709L279.257 214.049V182.73L251.63 166.813L224.002 182.73V214.049L196.825 229.709V261.028L169.647 276.688V307.687H-14.4911V308.585H169.712L197.275 324.502L224.452 308.842L251.63 324.502L278.807 308.842L305.985 324.502L333.612 308.585V308.521H374.025V307.622H333.548V307.558ZM224.966 183.243L251.63 167.84L278.293 183.243V214.049L270.133 218.799L251.63 229.452L231.648 217.9L224.966 214.049V183.243ZM224.002 308.007L197.339 323.41L170.675 308.007V277.202L197.339 261.799L212.438 270.527L224.002 277.202V308.007ZM211.153 268.73L197.789 261.028V230.222L224.452 214.819L239.615 223.612L251.116 230.222V261.028L239.615 267.639L224.452 276.431L211.153 268.73ZM278.293 308.007L251.63 323.41L224.966 308.007V277.202L231.648 273.351L251.63 261.799L270.133 272.452L278.293 277.202V308.007Z" fill="#BCBCBC"/>
<path d="M332.777 307.879L306.113 323.282L279.45 307.879V277.073L291.014 270.398L306.113 261.67L332.777 277.073V307.879ZM265.572 268.601L252.208 260.9V230.094L265.572 222.393L278.936 214.691L305.599 230.094V260.9L292.235 268.601L278.871 276.303L265.572 268.601ZM333.676 307.43V276.56L306.499 260.9V229.581L279.321 213.921V182.601L251.694 166.685L224.067 182.601V213.921L196.889 229.581V260.9L169.84 276.56V307.558H-14.2983V308.457H169.904L197.467 324.373L224.645 308.713L251.822 324.373L279 308.713L306.177 324.373L333.805 308.457V308.393H374.217V307.494H333.676V307.43ZM225.095 183.115L251.758 167.712L278.422 183.115V213.921L270.262 218.67L251.758 229.324L231.777 217.772L225.095 213.921V183.115ZM224.131 307.879L197.467 323.282L170.804 307.879V277.073L197.467 261.67L212.566 270.398L224.131 277.073V307.879ZM211.281 268.601L197.917 260.9V230.094L224.581 214.691L239.744 223.484L251.244 230.094V260.9L239.744 267.51L224.581 276.303L211.281 268.601ZM278.422 307.879L251.758 323.282L225.095 307.879V277.073L231.777 273.222L251.758 261.67L270.262 272.324L278.422 277.073V307.879Z" fill="#BBBBBB"/>
<path d="M332.905 307.751L306.242 323.154L279.578 307.751V276.945L291.143 270.27L306.242 261.542L332.905 276.945V307.751ZM265.7 268.473L252.336 260.772V229.966L265.7 222.264L279.064 214.563L305.728 229.966V260.772L292.364 268.473L279 276.175L265.7 268.473ZM333.869 307.301V276.431L306.691 260.772V229.452L279.514 213.793V182.473L251.887 166.557L224.259 182.473V213.793L197.082 229.452V260.772L169.904 276.431V307.43H-14.1699V308.328H170.033L197.596 324.245L224.773 308.585L251.951 324.245L279.128 308.585L306.306 324.245L333.933 308.328V308.264H374.346V307.366H333.869V307.301ZM225.223 182.987L251.887 167.584L278.55 182.987V213.793L270.39 218.542L251.887 229.196L231.905 217.643L225.223 213.793V182.987ZM224.259 307.751L197.596 323.154L170.932 307.751V276.945L197.596 261.542L212.695 270.27L224.259 276.945V307.751ZM211.41 268.473L198.046 260.772V229.966L224.709 214.563L239.872 223.355L251.373 229.966V260.772L239.872 267.382L224.709 276.175L211.41 268.473ZM278.614 307.751L251.951 323.154L225.287 307.751V276.945L231.969 273.094L251.951 261.542L270.455 272.195L278.614 276.945V307.751Z" fill="#BABABA"/>
<path d="M333.034 307.622L306.37 323.025L279.707 307.622V276.816L291.271 270.142L306.37 261.413L333.034 276.816V307.622ZM265.829 268.281L252.465 260.579V229.773L265.829 222.072L279.193 214.37L305.856 229.773V260.579L292.492 268.281L279.128 275.982L265.829 268.281ZM333.997 307.109V276.239L306.82 260.579V229.26L279.642 213.6V182.281L252.015 166.364L224.388 182.281V213.6L197.21 229.26V260.579L170.033 276.239V307.237H-14.0414V308.136H170.161L197.724 324.052L224.902 308.393L252.079 324.052L279.257 308.393L306.434 324.052L334.062 308.136V308.072H374.346V307.173H333.997V307.109ZM225.352 182.858L252.015 167.455L278.679 182.858V213.664L270.519 218.413L252.015 229.067L232.034 217.515L225.352 213.664V182.858ZM224.388 307.622L197.724 323.025L171.061 307.622V276.816L197.724 261.413L212.823 270.142L224.388 276.816V307.622ZM211.538 268.281L198.174 260.579V229.773L224.838 214.37L240 223.163L251.501 229.773V260.579L240.065 267.254L224.902 276.046L211.538 268.281ZM278.743 307.622L252.079 323.025L225.416 307.622V276.816L232.098 272.966L252.079 261.413L270.583 272.067L278.743 276.816V307.622Z" fill="#B9B9B9"/>
<path d="M333.162 307.43L306.499 322.833L279.835 307.43V276.624L291.4 269.949L306.499 261.221L333.162 276.624V307.43ZM266.021 268.152L252.658 260.451V229.645L266.021 221.943L279.385 214.242L306.049 229.645V260.451L292.685 268.152L279.321 275.854L266.021 268.152ZM334.126 306.981V276.11L306.948 260.451V229.131L279.771 213.472V182.152L252.144 166.236L224.516 182.152V213.472L197.339 229.131V260.451L170.161 276.11V307.109H-13.9128V308.007H170.29L197.853 323.924L225.03 308.264L252.208 323.924L279.385 308.264L306.563 323.924L334.19 308.007V307.943H374.603V307.045H334.126V306.981ZM225.48 182.73L252.144 167.327L278.807 182.73V213.536L270.647 218.285L252.144 228.939L232.162 217.387L225.48 213.536V182.73ZM224.581 307.43L197.917 322.833L171.254 307.43V276.624L197.917 261.221L213.016 269.949L224.581 276.624V307.43ZM211.667 268.152L198.303 260.451V229.645L224.966 214.242L240.129 223.034L251.63 229.645V260.451L240.129 267.061L224.966 275.854L211.667 268.152ZM278.871 307.43L252.208 322.833L225.544 307.43V276.624L232.226 272.773L252.208 261.221L270.712 271.875L278.871 276.624V307.43Z" fill="#B8B8B8"/>
<path d="M333.29 307.301L306.627 322.704L279.964 307.301V276.495L291.528 269.821L306.627 261.093L333.29 276.495V307.301ZM266.15 268.024L252.786 260.322V229.516L266.15 221.815L279.514 214.113L306.177 229.516V260.322L292.813 268.024L279.45 275.725L266.15 268.024ZM334.254 306.852V275.982L307.077 260.322V229.003L279.899 213.343V182.024L252.272 166.107L224.645 182.024V213.343L197.467 229.003V260.322L170.29 275.982V306.981H-13.7844V307.879H170.418L197.981 323.796L225.159 308.136L252.336 323.796L279.514 308.136L306.691 323.796L334.318 307.879V307.815H374.731V306.916H334.254V306.852ZM225.673 182.601L252.336 167.198L279 182.601V213.407L270.84 218.157L252.336 228.81L232.355 217.258L225.673 213.407V182.601ZM224.709 307.301L198.046 322.704L171.382 307.301V276.495L198.046 261.093L213.144 269.821L224.709 276.495V307.301ZM211.859 268.024L198.495 260.322V229.516L225.159 214.113L240.322 222.906L251.822 229.516V260.322L240.386 266.933L225.223 275.725L211.859 268.024ZM279 307.301L252.336 322.704L225.673 307.301V276.495L232.355 272.645L252.336 261.093L270.84 271.746L279 276.495V307.301Z" fill="#B7B7B7"/>
<path d="M333.483 307.173L306.82 322.576L280.156 307.173V276.367L291.721 269.693L306.82 260.964L333.483 276.367V307.173ZM266.278 267.896L252.915 260.194V229.388L266.278 221.687L279.642 213.985L306.306 229.388V260.194L292.942 267.896L279.578 275.597L266.278 267.896ZM334.383 306.724V275.854L307.205 260.194V228.875L280.028 213.215V181.896L252.401 165.979L224.773 181.896V213.215L197.66 228.875V260.194L170.483 275.854V306.852H-13.5916V307.751H170.611L198.174 323.667L225.287 308.007L252.465 323.667L279.642 308.007L306.82 323.667L334.447 307.751V307.687H374.86V306.724H334.383ZM225.801 182.409L252.465 167.006L279.128 182.409V213.215L270.969 217.964L252.465 228.618L232.483 217.066L225.801 213.215V182.409ZM224.838 307.173L198.174 322.576L171.511 307.173V276.367L198.174 260.964L213.273 269.693L224.838 276.367V307.173ZM211.988 267.896L198.624 260.194V229.388L225.287 213.985L240.45 222.778L251.951 229.388V260.194L240.45 266.804L225.287 275.597L211.988 267.896ZM279.128 307.173L252.465 322.576L225.801 307.173V276.367L232.483 272.516L252.465 260.964L270.969 271.618L279.128 276.367V307.173Z" fill="#B6B6B6"/>
<path d="M333.612 307.045L306.948 322.448L280.285 307.045V276.239L291.85 269.564L306.948 260.836L333.612 276.239V307.045ZM266.407 267.767L253.043 260.066V229.26L266.407 221.558L279.771 213.857L306.434 229.26V260.066L293.07 267.767L279.707 275.469L266.407 267.767ZM334.511 306.596V275.725L307.334 260.066V228.746L280.156 213.087V181.767L252.529 165.851L224.902 181.767V213.087L197.724 228.746V260.066L170.675 275.725V306.724H-13.4631V307.622H170.74L198.303 323.539L225.48 307.879L252.658 323.539L279.835 307.879L307.013 323.539L334.64 307.622V307.558H375.053V306.66H334.511V306.596ZM225.93 182.281L252.593 166.878L279.257 182.281V213.087L271.097 217.836L252.593 228.425L232.612 216.873L225.93 213.022V182.281ZM224.966 307.045L198.303 322.448L171.639 307.045V276.239L198.303 260.836L213.401 269.564L224.966 276.239V307.045ZM212.116 267.767L198.752 260.066V229.26L225.416 213.857L240.579 222.649L252.079 229.26V260.066L240.579 266.676L225.416 275.469L212.116 267.767ZM279.257 307.045L252.593 322.448L225.93 307.045V276.239L232.612 272.388L252.593 260.836L271.097 271.49L279.257 276.239V307.045Z" fill="#B5B5B5"/>
<path d="M333.74 306.916L307.077 322.319L280.413 306.916V276.11L291.978 269.436L307.077 260.707L333.74 276.11V306.916ZM266.535 267.575L253.172 259.873V229.067L266.535 221.366L279.899 213.664L306.563 229.067V259.873L293.199 267.575L279.899 275.276L266.535 267.575ZM334.704 306.403V275.533L307.527 259.937V228.618L280.349 212.958V181.639L252.722 165.722L225.095 181.639V212.958L197.917 228.618V259.937L170.74 275.597V306.596H-13.3346V307.494H170.868L198.431 323.41L225.609 307.751L252.786 323.41L279.964 307.751L307.141 323.41L334.768 307.494V307.366H375.181V306.467H334.704V306.403ZM226.058 182.152L252.722 166.749L279.385 182.152V212.958L271.226 217.707L252.722 228.361L232.74 216.809L226.058 212.958V182.152ZM225.095 306.916L198.431 322.319L171.768 306.916V276.11L198.431 260.707L213.53 269.436L225.095 276.11V306.916ZM212.245 267.575L198.881 259.873V229.067L225.544 213.664L240.707 222.457L252.208 229.067V259.873L240.707 266.484L225.609 275.276L212.245 267.575ZM279.45 306.916L252.786 322.319L226.123 306.916V276.11L232.805 272.26L252.786 260.707L271.29 271.361L279.45 276.11V306.916Z" fill="#B4B4B4"/>
<path d="M333.869 306.724L307.205 322.127L280.542 306.724V275.918L292.107 269.243L307.205 260.515L333.869 275.918V306.724ZM266.728 267.446L253.364 259.745V228.939L266.728 221.237L280.092 213.536L306.756 228.939V259.745L293.392 267.446L280.028 275.148L266.728 267.446ZM334.833 306.275V275.404L307.655 259.745V228.425L280.542 212.766V181.446L252.915 165.53L225.287 181.446V212.766L198.11 228.425V259.745L170.932 275.404V306.403H-13.2061V307.301H170.997L198.56 323.218L225.737 307.558L252.915 323.218L280.092 307.558L307.27 323.218L334.897 307.301V307.237H375.31V306.339H334.833V306.275ZM226.187 182.024L252.85 166.621L279.514 182.024V212.83L271.354 217.579L252.915 228.169L232.933 216.616L226.251 212.766V182.024H226.187ZM225.287 306.724L198.624 322.127L171.96 306.724V275.918L198.624 260.515L213.723 269.243L225.287 275.918V306.724ZM212.373 267.446L199.009 259.745V228.939L225.673 213.536L240.836 222.328L252.336 228.939V259.745L240.836 266.355L225.673 275.148L212.373 267.446ZM279.578 306.724L252.915 322.127L226.251 306.724V275.918L232.933 272.067L252.915 260.515L271.418 271.169L279.578 275.918V306.724Z" fill="#B3B3B3"/>
</g>
<path d="M334.833 306.275V275.404L307.655 259.745V228.425L280.542 212.766V181.446L252.915 165.53L225.287 181.446V212.766L198.11 228.425V259.745L170.932 275.404V306.403H-13.2061V307.301H170.997L198.56 323.218L225.737 307.558L252.915 323.218L280.092 307.558L307.27 323.218L334.897 307.301V307.237H375.31V306.339H334.833V306.275ZM226.187 182.024L252.85 166.621L279.514 182.024V212.83L271.354 217.579L252.915 228.169L232.933 216.616L226.251 212.766V182.024H226.187ZM225.287 306.724L198.624 322.127L171.96 306.724V275.918L198.624 260.515L213.723 269.243L225.287 275.918V306.724ZM212.373 267.446L199.009 259.745V228.939L225.673 213.536L240.836 222.328L252.336 228.939V259.745L240.836 266.355L225.673 275.148L212.373 267.446ZM279.578 306.724L252.915 322.127L226.251 306.724V275.918L232.933 272.067L252.915 260.515L271.418 271.169L279.578 275.918V306.724ZM266.728 267.446L253.364 259.745V228.939L266.728 221.237L280.092 213.536L306.756 228.939V259.745L293.392 267.446L280.028 275.148L266.728 267.446ZM333.869 306.724L307.205 322.127L280.542 306.724V275.918L292.107 269.243L307.205 260.515L333.869 275.918V306.724Z" fill="white"/>
<path d="M242.249 203.845C242.056 204.487 241.928 205.064 241.799 205.706C242.442 205.513 243.02 205.385 243.663 205.257C243.855 204.615 243.984 204.037 244.177 203.46C243.534 203.588 242.892 203.716 242.249 203.845ZM258.183 196.207L256.577 194.603C255.999 194.731 255.485 194.796 254.906 194.924L257.476 197.491C257.091 198.133 256.641 198.71 256.127 199.224L252.529 195.63C252.015 195.822 251.565 195.951 251.051 196.143L255.035 200.122C254.714 200.315 254.457 200.572 254.135 200.7C253.814 200.893 253.429 201.021 253.107 201.213L249.06 197.17C248.738 197.427 248.417 197.684 248.096 198.004C248.096 198.004 248.032 198.069 248.032 198.133L251.694 201.791C250.923 202.048 250.152 202.304 249.317 202.497L246.682 199.866C246.425 200.251 246.168 200.7 245.976 201.149L247.646 202.818C246.811 203.01 245.911 203.139 245.076 203.267C244.883 203.845 244.691 204.422 244.498 205.064C248.353 204.294 252.336 203.909 255.549 202.112C258.44 200.507 260.046 197.363 261.074 193.769C260.432 193.897 259.725 194.025 259.083 194.154C258.826 194.86 258.504 195.566 258.183 196.207ZM237.238 205.449L238.651 206.861C238.844 206.733 239.101 206.669 239.294 206.604L240.579 207.888C240.707 207.31 240.771 206.797 240.9 206.219L240.707 206.027C240.772 206.027 240.836 205.963 240.9 205.963C241.028 205.321 241.221 204.679 241.35 204.037C240.001 204.358 238.587 204.807 237.238 205.449ZM259.34 193.384C259.982 193.255 260.625 193.127 261.331 192.999C261.524 192.357 261.653 191.779 261.781 191.137C261.139 191.33 260.56 191.458 259.918 191.587C259.725 192.164 259.532 192.806 259.34 193.384ZM260.111 190.752C260.753 190.624 261.331 190.431 261.974 190.303C261.974 190.239 261.974 190.175 262.038 190.175L262.167 190.303C262.681 190.175 263.195 189.982 263.644 189.79L262.359 188.506C262.424 188.185 262.488 187.928 262.552 187.607L261.139 186.196C260.817 187.672 260.496 189.276 260.111 190.752Z" fill="white"/>
<path d="M246.168 196.079C243.213 199.031 242.056 204.166 241.093 209.236C241.542 209.685 242.056 210.198 242.506 210.648C243.47 205.578 244.562 200.443 247.582 197.491C248.16 196.913 248.803 196.464 249.509 196.079C254.457 193.319 261.203 193.897 266.407 191.394C265.957 190.945 265.443 190.431 264.993 189.982C259.789 192.485 253.043 191.907 248.096 194.667C247.325 195.052 246.682 195.566 246.168 196.079Z" fill="white"/>
<path d="M286.389 238.758C282.469 238.758 279.321 241.839 279.064 245.625H293.713C293.456 241.839 290.308 238.758 286.389 238.758Z" fill="white"/>
<path d="M279.064 246.46C279.257 250.31 282.469 253.391 286.389 253.391C290.308 253.391 293.52 250.31 293.713 246.46H279.064Z" fill="white"/>
<path d="M272.832 233.431C270.262 233.431 268.142 235.549 268.142 238.116V252.364C268.142 253.648 268.656 254.803 269.555 255.701C270.39 256.536 271.611 257.113 272.896 257.113C275.466 257.113 277.586 254.996 277.586 252.428V238.181C277.522 235.549 275.402 233.431 272.832 233.431ZM276.558 245.497H269.17V238.309C269.17 236.255 270.84 234.587 272.896 234.587C274.952 234.587 276.623 236.255 276.623 238.309V245.497H276.558Z" fill="white"/>
<path d="M198.431 277.907C198.431 277.907 190.336 291.385 190.336 295.878C190.336 300.306 193.934 303.964 198.431 303.964C202.864 303.964 206.527 300.37 206.527 295.878C206.527 291.385 198.431 277.907 198.431 277.907ZM198.431 302.167C194.898 302.167 192.071 299.343 192.071 295.813C192.071 293.375 195.54 286.379 198.431 281.245C201.322 286.379 204.792 293.375 204.792 295.813C204.856 299.343 201.965 302.167 198.431 302.167Z" fill="white"/>
<path d="M197.596 299.664C195.99 298.83 195.026 297.161 195.026 295.364C195.026 295.043 194.769 294.722 194.383 294.722C194.062 294.722 193.741 294.979 193.741 295.364C193.741 297.61 194.962 299.664 196.953 300.755C197.018 300.819 197.146 300.819 197.275 300.819C197.467 300.819 197.724 300.691 197.789 300.499C198.046 300.178 197.917 299.857 197.596 299.664Z" fill="white"/>
<path d="M237.945 235.228C237.945 235.228 237.045 236.127 234.218 236.127C233.576 236.127 232.869 236.063 232.098 235.999C227.408 235.421 225.416 233.303 225.416 233.303C225.416 233.303 223.424 235.357 218.734 235.999C217.899 236.127 217.192 236.127 216.614 236.127C213.851 236.127 212.887 235.228 212.887 235.228C212.887 235.228 210.189 251.273 225.416 260.13C240.643 251.337 237.945 235.228 237.945 235.228ZM225.416 258.461C219.89 255.06 216.357 250.246 214.879 244.149C214.172 241.39 214.108 238.951 214.172 237.346C214.815 237.475 215.586 237.603 216.549 237.603C217.256 237.603 218.091 237.539 218.862 237.475C222.075 237.09 224.195 235.999 225.352 235.228C226.508 235.999 228.628 237.09 231.841 237.475C232.676 237.603 233.447 237.603 234.154 237.603C235.118 237.603 235.889 237.539 236.531 237.346C236.788 241.518 235.953 251.915 225.416 258.461Z" fill="white"/>
<path d="M227.151 240.812H223.681V244.278H220.212V247.743H223.681V251.273H227.151V247.743H230.62V244.278H227.151V240.812Z" fill="white"/>
<path d="M266.985 289.909C266.792 285.737 263.323 282.593 259.018 282.593C258.89 282.593 258.761 282.593 258.633 282.593C255.934 282.721 253.878 284.454 252.85 285.545C251.822 284.454 249.831 282.657 247.132 282.464C246.939 282.464 246.811 282.464 246.618 282.464C242.378 282.464 238.908 285.545 238.651 289.652C238.394 293.503 241.029 296.84 243.02 299.022C245.59 301.846 249.638 304.927 252.272 306.467L252.722 306.724L253.172 306.467C255.806 304.927 259.918 301.975 262.552 299.151C264.544 297.097 267.178 293.76 266.985 289.909ZM261.203 298.06C258.569 300.819 254.842 303.515 252.722 304.798C250.602 303.451 246.875 300.755 244.305 297.931C243.791 297.354 243.277 296.776 242.763 296.07H248.224C248.289 296.07 248.417 296.006 248.481 295.942L248.803 295.557L249.188 297.29C249.188 297.418 249.317 297.482 249.445 297.482C249.574 297.482 249.702 297.418 249.702 297.29L250.088 295.685L250.537 297.995C250.537 298.124 250.666 298.188 250.794 298.188C250.923 298.188 251.051 298.124 251.051 297.995L252.401 291.449L253.493 301.14C253.493 301.269 253.621 301.333 253.75 301.333C253.878 301.333 254.007 301.269 254.007 301.14L254.971 295.364L255.356 297.867C255.356 297.995 255.485 298.06 255.613 298.06C255.742 298.06 255.87 297.995 255.87 297.867L256.577 295.749L256.834 296.969C256.834 297.097 256.962 297.161 257.091 297.161C257.219 297.161 257.348 297.097 257.348 296.969L257.669 296.07L257.99 296.519C258.055 296.584 258.119 296.648 258.183 296.648C258.247 296.648 258.376 296.584 258.376 296.584L258.826 296.07H262.809C262.359 296.776 261.781 297.482 261.203 298.06ZM263.259 295.557H258.826C258.761 295.557 258.633 295.621 258.633 295.621L258.312 295.942L257.926 295.364C257.862 295.3 257.798 295.236 257.669 295.236C257.541 295.236 257.476 295.3 257.412 295.428L257.219 295.942L256.898 294.594C256.898 294.466 256.77 294.401 256.641 294.401C256.513 294.401 256.384 294.466 256.384 294.594L255.742 296.584L255.292 293.567C255.292 293.439 255.163 293.375 255.035 293.375C254.906 293.375 254.778 293.439 254.778 293.567L253.878 299.087L252.786 289.588C252.786 289.46 252.658 289.395 252.529 289.395C252.401 289.395 252.272 289.46 252.272 289.588L250.859 296.455L250.409 294.145C250.409 294.016 250.28 293.952 250.152 293.952C250.023 293.952 249.895 294.016 249.895 294.145L249.509 295.813L249.252 294.722C249.252 294.594 249.124 294.53 248.995 294.53C248.867 294.53 248.803 294.53 248.738 294.658L248.16 295.428H242.442C241.286 293.76 240.322 291.77 240.45 289.652C240.643 286.893 242.827 284.069 246.682 284.069C246.811 284.069 246.939 284.069 247.132 284.069C250.152 284.261 252.208 287.213 252.208 287.278L252.915 288.304L253.621 287.278C253.621 287.278 255.742 284.325 258.761 284.197C262.809 284.069 265.186 287.021 265.315 289.845C265.379 292.027 264.415 293.952 263.259 295.557Z" fill="white"/>
<path d="M321.276 294.337C321.276 292.604 319.862 291.257 318.192 291.257C316.521 291.257 315.108 292.669 315.108 294.337C315.108 295.813 316.136 297.033 317.549 297.354V302.552C317.549 306.339 314.465 309.419 310.675 309.419C306.884 309.419 303.8 306.339 303.8 302.552V300.434H306.82C308.49 300.434 309.904 299.151 310.096 297.546L311.831 283.555C311.96 282.593 311.638 281.63 310.996 280.924C310.353 280.218 309.454 279.769 308.49 279.769H307.205C306.82 279.769 306.499 280.09 306.499 280.475C306.499 280.86 306.82 281.181 307.205 281.181H308.49C309.068 281.181 309.582 281.437 309.968 281.822C310.353 282.272 310.482 282.785 310.418 283.363L308.683 297.354C308.554 298.316 307.719 299.087 306.756 299.087H299.303C298.339 299.087 297.504 298.381 297.375 297.354L295.64 283.363C295.576 282.785 295.769 282.272 296.09 281.822C296.476 281.373 296.99 281.181 297.568 281.181H299.367C299.752 281.181 300.074 280.86 300.074 280.475C300.074 280.09 299.752 279.769 299.367 279.769H297.568C296.604 279.769 295.705 280.154 295.062 280.924C294.42 281.63 294.163 282.593 294.227 283.555L295.962 297.546C296.154 299.215 297.568 300.434 299.238 300.434H302.258V302.552C302.258 307.109 305.985 310.767 310.482 310.767C315.044 310.767 318.706 307.045 318.706 302.552V297.354C320.248 297.033 321.276 295.813 321.276 294.337Z" fill="white"/>
</svg>
