<svg width="15" height="14" viewBox="0 0 15 14" fill="none" xmlns="http://www.w3.org/2000/svg">
<path d="M13.9733 12.5267L11.4999 10.0733C12.46 8.87627 12.9249 7.35686 12.7991 5.82753C12.6733 4.2982 11.9664 2.87519 10.8236 1.85109C9.68085 0.827001 8.18914 0.279671 6.65522 0.321644C5.1213 0.363618 3.66175 0.991705 2.5767 2.07676C1.49164 3.16181 0.863557 4.62136 0.821583 6.15528C0.77961 7.6892 1.32694 9.18091 2.35103 10.3237C3.37512 11.4664 4.79814 12.1734 6.32747 12.2992C7.8568 12.425 9.37621 11.9601 10.5733 11L13.0266 13.4533C13.0886 13.5158 13.1623 13.5654 13.2436 13.5993C13.3248 13.6331 13.4119 13.6505 13.4999 13.6505C13.5879 13.6505 13.6751 13.6331 13.7563 13.5993C13.8376 13.5654 13.9113 13.5158 13.9733 13.4533C14.0934 13.329 14.1606 13.1629 14.1606 12.99C14.1606 12.8171 14.0934 12.651 13.9733 12.5267ZM6.83327 11C5.91029 11 5.00804 10.7263 4.24061 10.2135C3.47318 9.70074 2.87504 8.97191 2.52183 8.11919C2.16862 7.26646 2.07621 6.32815 2.25627 5.42291C2.43634 4.51766 2.88079 3.68614 3.53344 3.0335C4.18608 2.38085 5.0176 1.9364 5.92285 1.75633C6.82809 1.57627 7.7664 1.66868 8.61913 2.02189C9.47185 2.3751 10.2007 2.97324 10.7135 3.74067C11.2262 4.5081 11.4999 5.41035 11.4999 6.33333C11.4999 7.57101 11.0083 8.75799 10.1331 9.63316C9.25793 10.5083 8.07095 11 6.83327 11Z" fill="white"/>
</svg>
